quantum_gate_and_controller/quantum_system.vcd
$date
	Tue Jan 06 21:10:31 2026
$end
$version
	Icarus Verilog
$end
$timescale
	1ps
$end
$scope module tb_quantum_system $end
$var wire 2 ! status [1:0] $end
$var wire 1 " gate_busy $end
$var wire 32 # display_beta [31:0] $end
$var wire 32 $ display_alpha [31:0] $end
$var reg 1 % clk $end
$var reg 1 & cmd_execute $end
$var reg 3 ' cmd_gate [2:0] $end
$var reg 1 ( reset $end
$var real 1 ) alpha_real $end
$var real 1 * beta_real $end
$var real 1 + prob0_real $end
$var real 1 , prob1_real $end
$scope function fp_to_real $end
$var reg 32 - fp_val [31:0] $end
$upscope $end
$scope function get_state_name $end
$var reg 32 . alpha [31:0] $end
$var reg 32 / beta [31:0] $end
$var real 1 0 a $end
$var real 1 1 b $end
$upscope $end
$scope module dut $end
$var wire 1 % clk $end
$var wire 1 & cmd_execute $end
$var wire 3 2 cmd_gate [2:0] $end
$var wire 1 ( reset $end
$var wire 32 3 state_prob_0 [31:0] $end
$var wire 32 4 state_beta_out [31:0] $end
$var wire 32 5 state_alpha_out [31:0] $end
$var wire 32 6 rng_value [31:0] $end
$var wire 32 7 next_beta_in [31:0] $end
$var wire 32 8 next_alpha_in [31:0] $end
$var wire 1 9 meas_done_sig $end
$var wire 1 : meas_bit $end
$var wire 32 ; meas_beta_out [31:0] $end
$var wire 32 < meas_alpha_out [31:0] $end
$var wire 1 " gate_busy $end
$var wire 32 = gate_beta_out [31:0] $end
$var wire 32 > gate_alpha_out [31:0] $end
$var parameter 3 ? CMD_MEASURE $end
$var parameter 32 @ GATE_DELAY $end
$var parameter 2 A ST_EXECUTE $end
$var parameter 2 B ST_IDLE $end
$var parameter 2 C ST_MEASURE $end
$var parameter 2 D ST_UPDATE $end
$var reg 3 E current_gate [2:0] $end
$var reg 2 F current_state [1:0] $end
$var reg 32 G display_alpha [31:0] $end
$var reg 32 H display_beta [31:0] $end
$var reg 1 I meas_trigger $end
$var reg 1 J measure_result $end
$var reg 2 K next_state [1:0] $end
$var reg 1 L reg_update_en $end
$var reg 2 M status [1:0] $end
$var reg 32 N timer_counter [31:0] $end
$var reg 1 O timer_done $end
$scope module gate_unit $end
$var wire 3 P gate_type [2:0] $end
$var wire 1 Q ov_h_beta $end
$var wire 1 R ov_h_alpha $end
$var wire 32 S hadamard_sum [31:0] $end
$var wire 32 T hadamard_diff [31:0] $end
$var wire 32 U beta_in [31:0] $end
$var wire 32 V beta_h_core [31:0] $end
$var wire 32 W alpha_in [31:0] $end
$var wire 32 X alpha_h_core [31:0] $end
$var parameter 32 Y FIXED_ONE $end
$var parameter 32 Z FIXED_ZERO $end
$var parameter 3 [ GATE_H $end
$var parameter 3 \ GATE_IDLE $end
$var parameter 3 ] GATE_X $end
$var parameter 3 ^ GATE_Y $end
$var parameter 3 _ GATE_Z $end
$var parameter 32 ` INV_SQRT2 $end
$var reg 32 a alpha_out [31:0] $end
$var reg 32 b beta_out [31:0] $end
$scope module u_hadamard_alpha $end
$var wire 32 c a [31:0] $end
$var wire 32 d b [31:0] $end
$var wire 64 e temp_mult [63:0] $end
$var wire 64 f shifted_mult [63:0] $end
$var reg 32 g out [31:0] $end
$var reg 1 R overflow $end
$upscope $end
$scope module u_hadamard_beta $end
$var wire 32 h a [31:0] $end
$var wire 32 i b [31:0] $end
$var wire 64 j temp_mult [63:0] $end
$var wire 64 k shifted_mult [63:0] $end
$var reg 32 l out [31:0] $end
$var reg 1 Q overflow $end
$upscope $end
$upscope $end
$scope module meas_unit $end
$var wire 1 % clk $end
$var wire 1 I measure_en $end
$var wire 1 ( reset $end
$var wire 32 m random_val [31:0] $end
$var wire 32 n prob_0 [31:0] $end
$var parameter 32 o ONE $end
$var parameter 32 p ZERO $end
$var reg 1 9 done $end
$var reg 1 : measured_bit $end
$var reg 32 q new_alpha [31:0] $end
$var reg 32 r new_beta [31:0] $end
$upscope $end
$scope module rng_inst $end
$var wire 1 % clk $end
$var wire 1 s feedback $end
$var wire 1 ( reset $end
$var wire 32 t random_out [31:0] $end
$var reg 32 u lfsr_reg [31:0] $end
$upscope $end
$scope module state_reg $end
$var wire 32 v alpha_in [31:0] $end
$var wire 32 w beta_in [31:0] $end
$var wire 1 % clk $end
$var wire 1 ( reset $end
$var wire 1 L update_en $end
$var wire 32 x total_prob [31:0] $end
$var wire 32 y prob_1 [31:0] $end
$var wire 32 z prob_0 [31:0] $end
$var parameter 32 { FIXED_ONE $end
$var parameter 32 | FIXED_ZERO $end
$var reg 32 } alpha_out [31:0] $end
$var reg 32 ~ beta_out [31:0] $end
$scope function fp_square $end
$var reg 32 !" a [31:0] $end
$var reg 64 "" temp [63:0] $end
$upscope $end
$upscope $end
$upscope $end
$scope task apply_gate $end
$var reg 3 #" gate_code [2:0] $end
$var reg 80 $" gate_name [79:0] $end
$upscope $end
$upscope $end
$enddefinitions $end
$comment Show the parameter values. $end
$dumpall
b0 |
b10000000000000000 {
b0 p
b10000000000000000 o
b1011010100000100 `
b11 _
b100 ^
b10 ]
b0 \
b1 [
b0 Z
b10000000000000000 Y
b10 D
b11 C
b0 B
b1 A
b1111101000 @
b101 ?
$end
#0
$dumpvars
bx $"
bx #"
b0 ""
b0 !"
b0 ~
b10000000000000000 }
b10000000000000000 z
b0 y
b10000000000000000 x
b0 w
b10000000000000000 v
b11011110101011011011111011101111 u
b1011111011101111 t
0s
b0 r
b10000000000000000 q
b10000000000000000 n
b1011111011101111 m
b1011010100000100 l
b1011010100000100 k
b10110101000001000000000000000000 j
b1011010100000100 i
b10000000000000000 h
b1011010100000100 g
b1011010100000100 f
b10110101000001000000000000000000 e
b1011010100000100 d
b10000000000000000 c
b0 b
b10000000000000000 a
b1011010100000100 X
b10000000000000000 W
b1011010100000100 V
b0 U
b10000000000000000 T
b10000000000000000 S
0R
0Q
bx P
0O
b0 N
b0 M
0L
b0 K
0J
0I
bx H
bx G
b0 F
bx E
b10000000000000000 >
b0 =
b10000000000000000 <
b0 ;
0:
09
b10000000000000000 8
b0 7
b1011111011101111 6
b10000000000000000 5
b0 4
b10000000000000000 3
b0 2
r0 1
r0 0
bx /
bx .
bx -
r0 ,
r0 +
r0 *
r0 )
1(
b0 '
0&
0%
bx $
bx #
0"
b0 !
$end
#5000
r1 +
r1 )
b0 -
b0 #
b0 H
b10000000000000000 $
b10000000000000000 G
1%
#10000
0%
#15000
1%
#20000
0%
#25000
1%
#30000
0%
#35000
1%
#40000
0%
#45000
1%
#50000
0%
#55000
1%
#60000
0%
#65000
1%
#70000
0%
#75000
1%
#80000
0%
#85000
1%
#90000
0%
#95000
1%
#100000
0%
b1 '
b1 2
b1100100011000010110110101100001011100100110010000100000001010000100100000101001 $"
b1 #"
r1 0
b0 -
b10000000000000000 .
b0 /
0(
#105000
0s
b111110111011110 6
b111110111011110 m
b111110111011110 t
b10111101010110110111110111011110 u
1%
#110000
b1011010100000100 8
b1011010100000100 v
b1011010100000100 7
b1011010100000100 w
b1011010100000100 =
b1011010100000100 b
b1011010100000100 >
b1011010100000100 a
b1 K
b1 E
b1 P
0%
1&
#115000
1s
b1111101110111100 6
b1111101110111100 m
b1111101110111100 t
b1 !
b1 M
b1111010101101101111101110111100 u
1"
b1 F
1%
#120000
b1 !
b1 M
0%
0&
#125000
1s
b1111011101111001 6
b1111011101111001 m
b1111011101111001 t
b1 N
b11110101011011011111011101111001 u
1%
#130000
0%
#135000
1s
b1110111011110011 6
b1110111011110011 m
b1110111011110011 t
b11101010110110111110111011110011 u
b10 N
1%
#140000
0%
#145000
0s
b1101110111100111 6
b1101110111100111 m
b1101110111100111 t
b11 N
b11010101101101111101110111100111 u
1%
#150000
0%
#155000
1s
b1011101111001110 6
b1011101111001110 m
b1011101111001110 t
b10101011011011111011101111001110 u
b100 N
1%
#160000
0%
#165000
1s
b111011110011101 6
b111011110011101 m
b111011110011101 t
b101 N
b1010110110111110111011110011101 u
1%
#170000
0%
#175000
0s
b1110111100111011 6
b1110111100111011 m
b1110111100111011 t
b10101101101111101110111100111011 u
b110 N
1%
#180000
0%
#185000
0s
b1101111001110110 6
b1101111001110110 m
b1101111001110110 t
b111 N
b1011011011111011101111001110110 u
1%
#190000
0%
#195000
0s
b1011110011101100 6
b1011110011101100 m
b1011110011101100 t
b10110110111110111011110011101100 u
b1000 N
1%
#200000
0%
#205000
1s
b111100111011000 6
b111100111011000 m
b111100111011000 t
b1001 N
b1101101111101110111100111011000 u
1%
#210000
0%
#215000
1s
b1111001110110001 6
b1111001110110001 m
b1111001110110001 t
b11011011111011101111001110110001 u
b1010 N
1%
#220000
0%
#225000
1s
b1110011101100011 6
b1110011101100011 m
b1110011101100011 t
b1011 N
b10110111110111011110011101100011 u
1%
#230000
0%
#235000
b1100111011000111 6
b1100111011000111 m
b1100111011000111 t
b1101111101110111100111011000111 u
b1100 N
1%
#240000
0%
#245000
0s
b1001110110001111 6
b1001110110001111 m
b1001110110001111 t
b1101 N
b11011111011101111001110110001111 u
1%
#250000
0%
#255000
1s
b11101100011110 6
b11101100011110 m
b11101100011110 t
b10111110111011110011101100011110 u
b1110 N
1%
#260000
0%
#265000
1s
b111011000111101 6
b111011000111101 m
b111011000111101 t
b1111 N
b1111101110111100111011000111101 u
1%
#270000
0%
#275000
0s
b1110110001111011 6
b1110110001111011 m
b1110110001111011 t
b11111011101111001110110001111011 u
b10000 N
1%
#280000
0%
#285000
1s
b1101100011110110 6
b1101100011110110 m
b1101100011110110 t
b10001 N
b11110111011110011101100011110110 u
1%
#290000
0%
#295000
1s
b1011000111101101 6
b1011000111101101 m
b1011000111101101 t
b11101110111100111011000111101101 u
b10010 N
1%
#300000
0%
#305000
0s
b110001111011011 6
b110001111011011 m
b110001111011011 t
b10011 N
b11011101111001110110001111011011 u
1%
#310000
0%
#315000
0s
b1100011110110110 6
b1100011110110110 m
b1100011110110110 t
b10111011110011101100011110110110 u
b10100 N
1%
#320000
0%
#325000
0s
b1000111101101100 6
b1000111101101100 m
b1000111101101100 t
b10101 N
b1110111100111011000111101101100 u
1%
#330000
0%
#335000
b1111011011000 6
b1111011011000 m
b1111011011000 t
b11101111001110110001111011011000 u
b10110 N
1%
#340000
0%
#345000
b11110110110000 6
b11110110110000 m
b11110110110000 t
b10111 N
b11011110011101100011110110110000 u
1%
#350000
0%
#355000
b111101101100000 6
b111101101100000 m
b111101101100000 t
b10111100111011000111101101100000 u
b11000 N
1%
#360000
0%
#365000
b1111011011000000 6
b1111011011000000 m
b1111011011000000 t
b11001 N
b1111001110110001111011011000000 u
1%
#370000
0%
#375000
b1110110110000000 6
b1110110110000000 m
b1110110110000000 t
b11110011101100011110110110000000 u
b11010 N
1%
#380000
0%
#385000
b1101101100000000 6
b1101101100000000 m
b1101101100000000 t
b11011 N
b11100111011000111101101100000000 u
1%
#390000
0%
#395000
1s
b1011011000000000 6
b1011011000000000 m
b1011011000000000 t
b11001110110001111011011000000000 u
b11100 N
1%
#400000
0%
#405000
0s
b110110000000001 6
b110110000000001 m
b110110000000001 t
b11101 N
b10011101100011110110110000000001 u
1%
#410000
0%
#415000
1s
b1101100000000010 6
b1101100000000010 m
b1101100000000010 t
b111011000111101101100000000010 u
b11110 N
1%
#420000
0%
#425000
0s
b1011000000000101 6
b1011000000000101 m
b1011000000000101 t
b11111 N
b1110110001111011011000000000101 u
1%
#430000
0%
#435000
1s
b110000000001010 6
b110000000001010 m
b110000000001010 t
b11101100011110110110000000001010 u
b100000 N
1%
#440000
0%
#445000
1s
b1100000000010101 6
b1100000000010101 m
b1100000000010101 t
b100001 N
b11011000111101101100000000010101 u
1%
#450000
0%
#455000
0s
b1000000000101011 6
b1000000000101011 m
b1000000000101011 t
b10110001111011011000000000101011 u
b100010 N
1%
#460000
0%
#465000
1s
b1010110 6
b1010110 m
b1010110 t
b100011 N
b1100011110110110000000001010110 u
1%
#470000
0%
#475000
1s
b10101101 6
b10101101 m
b10101101 t
b11000111101101100000000010101101 u
b100100 N
1%
#480000
0%
#485000
0s
b101011011 6
b101011011 m
b101011011 t
b100101 N
b10001111011011000000000101011011 u
1%
#490000
0%
#495000
1s
b1010110110 6
b1010110110 m
b1010110110 t
b11110110110000000001010110110 u
b100110 N
1%
#500000
0%
#505000
0s
b10101101101 6
b10101101101 m
b10101101101 t
b100111 N
b111101101100000000010101101101 u
1%
#510000
0%
#515000
0s
b101011011010 6
b101011011010 m
b101011011010 t
b1111011011000000000101011011010 u
b101000 N
1%
#520000
0%
#525000
1s
b1010110110100 6
b1010110110100 m
b1010110110100 t
b101001 N
b11110110110000000001010110110100 u
1%
#530000
0%
#535000
0s
b10101101101001 6
b10101101101001 m
b10101101101001 t
b11101101100000000010101101101001 u
b101010 N
1%
#540000
0%
#545000
0s
b101011011010010 6
b101011011010010 m
b101011011010010 t
b101011 N
b11011011000000000101011011010010 u
1%
#550000
0%
#555000
1s
b1010110110100100 6
b1010110110100100 m
b1010110110100100 t
b10110110000000001010110110100100 u
b101100 N
1%
#560000
0%
#565000
1s
b101101101001001 6
b101101101001001 m
b101101101001001 t
b101101 N
b1101100000000010101101101001001 u
1%
#570000
0%
#575000
1s
b1011011010010011 6
b1011011010010011 m
b1011011010010011 t
b11011000000000101011011010010011 u
b101110 N
1%
#580000
0%
#585000
b110110100100111 6
b110110100100111 m
b110110100100111 t
b101111 N
b10110000000001010110110100100111 u
1%
#590000
0%
#595000
0s
b1101101001001111 6
b1101101001001111 m
b1101101001001111 t
b1100000000010101101101001001111 u
b110000 N
1%
#600000
0%
#605000
0s
b1011010010011110 6
b1011010010011110 m
b1011010010011110 t
b110001 N
b11000000000101011011010010011110 u
1%
#610000
0%
#615000
0s
b110100100111100 6
b110100100111100 m
b110100100111100 t
b10000000001010110110100100111100 u
b110010 N
1%
#620000
0%
#625000
b1101001001111000 6
b1101001001111000 m
b1101001001111000 t
b110011 N
b10101101101001001111000 u
1%
#630000
0%
#635000
1s
b1010010011110000 6
b1010010011110000 m
b1010010011110000 t
b101011011010010011110000 u
b110100 N
1%
#640000
0%
#645000
1s
b100100111100001 6
b100100111100001 m
b100100111100001 t
b110101 N
b1010110110100100111100001 u
1%
#650000
0%
#655000
1s
b1001001111000011 6
b1001001111000011 m
b1001001111000011 t
b10101101101001001111000011 u
b110110 N
1%
#660000
0%
#665000
b10011110000111 6
b10011110000111 m
b10011110000111 t
b110111 N
b101011011010010011110000111 u
1%
#670000
0%
#675000
0s
b100111100001111 6
b100111100001111 m
b100111100001111 t
b1010110110100100111100001111 u
b111000 N
1%
#680000
0%
#685000
0s
b1001111000011110 6
b1001111000011110 m
b1001111000011110 t
b111001 N
b10101101101001001111000011110 u
1%
#690000
0%
#695000
1s
b11110000111100 6
b11110000111100 m
b11110000111100 t
b101011011010010011110000111100 u
b111010 N
1%
#700000
0%
#705000
1s
b111100001111001 6
b111100001111001 m
b111100001111001 t
b111011 N
b1010110110100100111100001111001 u
1%
#710000
0%
#715000
0s
b1111000011110011 6
b1111000011110011 m
b1111000011110011 t
b10101101101001001111000011110011 u
b111100 N
1%
#720000
0%
#725000
1s
b1110000111100110 6
b1110000111100110 m
b1110000111100110 t
b111101 N
b1011011010010011110000111100110 u
1%
#730000
0%
#735000
0s
b1100001111001101 6
b1100001111001101 m
b1100001111001101 t
b10110110100100111100001111001101 u
b111110 N
1%
#740000
0%
#745000
0s
b1000011110011010 6
b1000011110011010 m
b1000011110011010 t
b111111 N
b1101101001001111000011110011010 u
1%
#750000
0%
#755000
1s
b111100110100 6
b111100110100 m
b111100110100 t
b11011010010011110000111100110100 u
b1000000 N
1%
#760000
0%
#765000
0s
b1111001101001 6
b1111001101001 m
b1111001101001 t
b1000001 N
b10110100100111100001111001101001 u
1%
#770000
0%
#775000
0s
b11110011010010 6
b11110011010010 m
b11110011010010 t
b1101001001111000011110011010010 u
b1000010 N
1%
#780000
0%
#785000
0s
b111100110100100 6
b111100110100100 m
b111100110100100 t
b1000011 N
b11010010011110000111100110100100 u
1%
#790000
0%
#795000
b1111001101001000 6
b1111001101001000 m
b1111001101001000 t
b10100100111100001111001101001000 u
b1000100 N
1%
#800000
0%
#805000
1s
b1110011010010000 6
b1110011010010000 m
b1110011010010000 t
b1000101 N
b1001001111000011110011010010000 u
1%
#810000
0%
#815000
0s
b1100110100100001 6
b1100110100100001 m
b1100110100100001 t
b10010011110000111100110100100001 u
b1000110 N
1%
#820000
0%
#825000
1s
b1001101001000010 6
b1001101001000010 m
b1001101001000010 t
b1000111 N
b100111100001111001101001000010 u
1%
#830000
0%
#835000
1s
b11010010000101 6
b11010010000101 m
b11010010000101 t
b1001111000011110011010010000101 u
b1001000 N
1%
#840000
0%
#845000
1s
b110100100001011 6
b110100100001011 m
b110100100001011 t
b1001001 N
b10011110000111100110100100001011 u
1%
#850000
0%
#855000
b1101001000010111 6
b1101001000010111 m
b1101001000010111 t
b111100001111001101001000010111 u
b1001010 N
1%
#860000
0%
#865000
b1010010000101111 6
b1010010000101111 m
b1010010000101111 t
b1001011 N
b1111000011110011010010000101111 u
1%
#870000
0%
#875000
0s
b100100001011111 6
b100100001011111 m
b100100001011111 t
b11110000111100110100100001011111 u
b1001100 N
1%
#880000
0%
#885000
1s
b1001000010111110 6
b1001000010111110 m
b1001000010111110 t
b1001101 N
b11100001111001101001000010111110 u
1%
#890000
0%
#895000
0s
b10000101111101 6
b10000101111101 m
b10000101111101 t
b11000011110011010010000101111101 u
b1001110 N
1%
#900000
0%
#905000
0s
b100001011111010 6
b100001011111010 m
b100001011111010 t
b1001111 N
b10000111100110100100001011111010 u
1%
#910000
0%
#915000
1s
b1000010111110100 6
b1000010111110100 m
b1000010111110100 t
b1111001101001000010111110100 u
b1010000 N
1%
#920000
0%
#925000
0s
b101111101001 6
b101111101001 m
b101111101001 t
b1010001 N
b11110011010010000101111101001 u
1%
#930000
0%
#935000
1s
b1011111010010 6
b1011111010010 m
b1011111010010 t
b111100110100100001011111010010 u
b1010010 N
1%
#940000
0%
#945000
0s
b10111110100101 6
b10111110100101 m
b10111110100101 t
b1010011 N
b1111001101001000010111110100101 u
1%
#950000
0%
#955000
0s
b101111101001010 6
b101111101001010 m
b101111101001010 t
b11110011010010000101111101001010 u
b1010100 N
1%
#960000
0%
#965000
1s
b1011111010010100 6
b1011111010010100 m
b1011111010010100 t
b1010101 N
b11100110100100001011111010010100 u
1%
#970000
0%
#975000
1s
b111110100101001 6
b111110100101001 m
b111110100101001 t
b11001101001000010111110100101001 u
b1010110 N
1%
#980000
0%
#985000
1s
b1111101001010011 6
b1111101001010011 m
b1111101001010011 t
b1010111 N
b10011010010000101111101001010011 u
1%
#990000
0%
#995000
0s
b1111010010100111 6
b1111010010100111 m
b1111010010100111 t
b110100100001011111010010100111 u
b1011000 N
1%
#1000000
0%
#1005000
1s
b1110100101001110 6
b1110100101001110 m
b1110100101001110 t
b1011001 N
b1101001000010111110100101001110 u
1%
#1010000
0%
#1015000
0s
b1101001010011101 6
b1101001010011101 m
b1101001010011101 t
b11010010000101111101001010011101 u
b1011010 N
1%
#1020000
0%
#1025000
1s
b1010010100111010 6
b1010010100111010 m
b1010010100111010 t
b1011011 N
b10100100001011111010010100111010 u
1%
#1030000
0%
#1035000
1s
b100101001110101 6
b100101001110101 m
b100101001110101 t
b1001000010111110100101001110101 u
b1011100 N
1%
#1040000
0%
#1045000
0s
b1001010011101011 6
b1001010011101011 m
b1001010011101011 t
b1011101 N
b10010000101111101001010011101011 u
1%
#1050000
0%
#1055000
0s
b10100111010110 6
b10100111010110 m
b10100111010110 t
b100001011111010010100111010110 u
b1011110 N
1%
#1060000
0%
#1065000
1s
b101001110101100 6
b101001110101100 m
b101001110101100 t
b1011111 N
b1000010111110100101001110101100 u
1%
#1070000
0%
#1075000
1s
b1010011101011001 6
b1010011101011001 m
b1010011101011001 t
b10000101111101001010011101011001 u
b1100000 N
1%
#1080000
0%
#1085000
1s
b100111010110011 6
b100111010110011 m
b100111010110011 t
b1100001 N
b1011111010010100111010110011 u
1%
#1090000
0%
#1095000
0s
b1001110101100111 6
b1001110101100111 m
b1001110101100111 t
b10111110100101001110101100111 u
b1100010 N
1%
#1100000
0%
#1105000
0s
b11101011001110 6
b11101011001110 m
b11101011001110 t
b1100011 N
b101111101001010011101011001110 u
1%
#1110000
0%
#1115000
0s
b111010110011100 6
b111010110011100 m
b111010110011100 t
b1011111010010100111010110011100 u
b1100100 N
1%
#1120000
0%
#1125000
1s
b1110101100111000 6
b1110101100111000 m
b1110101100111000 t
b1100101 N
b10111110100101001110101100111000 u
1%
#1130000
0%
#1135000
0s
b1101011001110001 6
b1101011001110001 m
b1101011001110001 t
b1111101001010011101011001110001 u
b1100110 N
1%
#1140000
0%
#1145000
0s
b1010110011100010 6
b1010110011100010 m
b1010110011100010 t
b1100111 N
b11111010010100111010110011100010 u
1%
#1150000
0%
#1155000
0s
b101100111000100 6
b101100111000100 m
b101100111000100 t
b11110100101001110101100111000100 u
b1101000 N
1%
#1160000
0%
#1165000
1s
b1011001110001000 6
b1011001110001000 m
b1011001110001000 t
b1101001 N
b11101001010011101011001110001000 u
1%
#1170000
0%
#1175000
0s
b110011100010001 6
b110011100010001 m
b110011100010001 t
b11010010100111010110011100010001 u
b1101010 N
1%
#1180000
0%
#1185000
1s
b1100111000100010 6
b1100111000100010 m
b1100111000100010 t
b1101011 N
b10100101001110101100111000100010 u
1%
#1190000
0%
#1195000
0s
b1001110001000101 6
b1001110001000101 m
b1001110001000101 t
b1001010011101011001110001000101 u
b1101100 N
1%
#1200000
0%
#1205000
1s
b11100010001010 6
b11100010001010 m
b11100010001010 t
b1101101 N
b10010100111010110011100010001010 u
1%
#1210000
0%
#1215000
1s
b111000100010101 6
b111000100010101 m
b111000100010101 t
b101001110101100111000100010101 u
b1101110 N
1%
#1220000
0%
b1100001011101010110110001101001001011010101100000100000001010000101100000101001 $"
b10 #"
b0 -
#1225000
1s
b1110001000101011 6
b1110001000101011 m
b1110001000101011 t
b1101111 N
b1010011101011001110001000101011 u
1%
#1230000
0%
#1235000
b1100010001010111 6
b1100010001010111 m
b1100010001010111 t
b10100111010110011100010001010111 u
b1110000 N
1%
#1240000
0%
#1245000
b1000100010101111 6
b1000100010101111 m
b1000100010101111 t
b1110001 N
b1001110101100111000100010101111 u
1%
#1250000
0%
#1255000
0s
b1000101011111 6
b1000101011111 m
b1000101011111 t
b10011101011001110001000101011111 u
b1110010 N
1%
#1260000
0%
#1265000
1s
b10001010111110 6
b10001010111110 m
b10001010111110 t
b1110011 N
b111010110011100010001010111110 u
1%
#1270000
0%
#1275000
1s
b100010101111101 6
b100010101111101 m
b100010101111101 t
b1110101100111000100010101111101 u
b1110100 N
1%
#1280000
0%
#1285000
0s
b1000101011111011 6
b1000101011111011 m
b1000101011111011 t
b1110101 N
b11101011001110001000101011111011 u
1%
#1290000
0%
#1295000
1s
b1010111110110 6
b1010111110110 m
b1010111110110 t
b11010110011100010001010111110110 u
b1110110 N
1%
#1300000
0%
#1305000
1s
b10101111101101 6
b10101111101101 m
b10101111101101 t
b1110111 N
b10101100111000100010101111101101 u
1%
#1310000
0%
#1315000
0s
b101011111011011 6
b101011111011011 m
b101011111011011 t
b1011001110001000101011111011011 u
b1111000 N
1%
#1320000
0%
#1325000
0s
b1010111110110110 6
b1010111110110110 m
b1010111110110110 t
b1111001 N
b10110011100010001010111110110110 u
1%
#1330000
0%
#1335000
0s
b101111101101100 6
b101111101101100 m
b101111101101100 t
b1100111000100010101111101101100 u
b1111010 N
1%
#1340000
0%
#1345000
b1011111011011000 6
b1011111011011000 m
b1011111011011000 t
b1111011 N
b11001110001000101011111011011000 u
1%
#1350000
0%
#1355000
1s
b111110110110000 6
b111110110110000 m
b111110110110000 t
b10011100010001010111110110110000 u
b1111100 N
1%
#1360000
0%
#1365000
1s
b1111101101100001 6
b1111101101100001 m
b1111101101100001 t
b1111101 N
b111000100010101111101101100001 u
1%
#1370000
0%
#1375000
0s
b1111011011000011 6
b1111011011000011 m
b1111011011000011 t
b1110001000101011111011011000011 u
b1111110 N
1%
#1380000
0%
#1385000
1s
b1110110110000110 6
b1110110110000110 m
b1110110110000110 t
b1111111 N
b11100010001010111110110110000110 u
1%
#1390000
0%
#1395000
0s
b1101101100001101 6
b1101101100001101 m
b1101101100001101 t
b11000100010101111101101100001101 u
b10000000 N
1%
#1400000
0%
#1405000
1s
b1011011000011010 6
b1011011000011010 m
b1011011000011010 t
b10000001 N
b10001000101011111011011000011010 u
1%
#1410000
0%
#1415000
1s
b110110000110101 6
b110110000110101 m
b110110000110101 t
b10001010111110110110000110101 u
b10000010 N
1%
#1420000
0%
#1425000
1s
b1101100001101011 6
b1101100001101011 m
b1101100001101011 t
b10000011 N
b100010101111101101100001101011 u
1%
#1430000
0%
#1435000
b1011000011010111 6
b1011000011010111 m
b1011000011010111 t
b1000101011111011011000011010111 u
b10000100 N
1%
#1440000
0%
#1445000
0s
b110000110101111 6
b110000110101111 m
b110000110101111 t
b10000101 N
b10001010111110110110000110101111 u
1%
#1450000
0%
#1455000
0s
b1100001101011110 6
b1100001101011110 m
b1100001101011110 t
b10101111101101100001101011110 u
b10000110 N
1%
#1460000
0%
#1465000
1s
b1000011010111100 6
b1000011010111100 m
b1000011010111100 t
b10000111 N
b101011111011011000011010111100 u
1%
#1470000
0%
#1475000
1s
b110101111001 6
b110101111001 m
b110101111001 t
b1010111110110110000110101111001 u
b10001000 N
1%
#1480000
0%
#1485000
0s
b1101011110011 6
b1101011110011 m
b1101011110011 t
b10001001 N
b10101111101101100001101011110011 u
1%
#1490000
0%
#1495000
0s
b11010111100110 6
b11010111100110 m
b11010111100110 t
b1011111011011000011010111100110 u
b10001010 N
1%
#1500000
0%
#1505000
1s
b110101111001100 6
b110101111001100 m
b110101111001100 t
b10001011 N
b10111110110110000110101111001100 u
1%
#1510000
0%
#1515000
0s
b1101011110011001 6
b1101011110011001 m
b1101011110011001 t
b1111101101100001101011110011001 u
b10001100 N
1%
#1520000
0%
#1525000
1s
b1010111100110010 6
b1010111100110010 m
b1010111100110010 t
b10001101 N
b11111011011000011010111100110010 u
1%
#1530000
0%
#1535000
0s
b101111001100101 6
b101111001100101 m
b101111001100101 t
b11110110110000110101111001100101 u
b10001110 N
1%
#1540000
0%
#1545000
0s
b1011110011001010 6
b1011110011001010 m
b1011110011001010 t
b10001111 N
b11101101100001101011110011001010 u
1%
#1550000
0%
#1555000
1s
b111100110010100 6
b111100110010100 m
b111100110010100 t
b11011011000011010111100110010100 u
b10010000 N
1%
#1560000
0%
#1565000
0s
b1111001100101001 6
b1111001100101001 m
b1111001100101001 t
b10010001 N
b10110110000110101111001100101001 u
1%
#1570000
0%
#1575000
0s
b1110011001010010 6
b1110011001010010 m
b1110011001010010 t
b1101100001101011110011001010010 u
b10010010 N
1%
#1580000
0%
#1585000
0s
b1100110010100100 6
b1100110010100100 m
b1100110010100100 t
b10010011 N
b11011000011010111100110010100100 u
1%
#1590000
0%
#1595000
1s
b1001100101001000 6
b1001100101001000 m
b1001100101001000 t
b10110000110101111001100101001000 u
b10010100 N
1%
#1600000
0%
#1605000
0s
b11001010010001 6
b11001010010001 m
b11001010010001 t
b10010101 N
b1100001101011110011001010010001 u
1%
#1610000
0%
#1615000
0s
b110010100100010 6
b110010100100010 m
b110010100100010 t
b11000011010111100110010100100010 u
b10010110 N
1%
#1620000
0%
#1625000
0s
b1100101001000100 6
b1100101001000100 m
b1100101001000100 t
b10010111 N
b10000110101111001100101001000100 u
1%
#1630000
0%
#1635000
1s
b1001010010001000 6
b1001010010001000 m
b1001010010001000 t
b1101011110011001010010001000 u
b10011000 N
1%
#1640000
0%
#1645000
0s
b10100100010001 6
b10100100010001 m
b10100100010001 t
b10011001 N
b11010111100110010100100010001 u
1%
#1650000
0%
#1655000
0s
b101001000100010 6
b101001000100010 m
b101001000100010 t
b110101111001100101001000100010 u
b10011010 N
1%
#1660000
0%
#1665000
0s
b1010010001000100 6
b1010010001000100 m
b1010010001000100 t
b10011011 N
b1101011110011001010010001000100 u
1%
#1670000
0%
#1675000
1s
b100100010001000 6
b100100010001000 m
b100100010001000 t
b11010111100110010100100010001000 u
b10011100 N
1%
#1680000
0%
#1685000
1s
b1001000100010001 6
b1001000100010001 m
b1001000100010001 t
b10011101 N
b10101111001100101001000100010001 u
1%
#1690000
0%
#1695000
1s
b10001000100011 6
b10001000100011 m
b10001000100011 t
b1011110011001010010001000100011 u
b10011110 N
1%
#1700000
0%
#1705000
b100010001000111 6
b100010001000111 m
b100010001000111 t
b10011111 N
b10111100110010100100010001000111 u
1%
#1710000
0%
#1715000
0s
b1000100010001111 6
b1000100010001111 m
b1000100010001111 t
b1111001100101001000100010001111 u
b10100000 N
1%
#1720000
0%
#1725000
1s
b1000100011110 6
b1000100011110 m
b1000100011110 t
b10100001 N
b11110011001010010001000100011110 u
1%
#1730000
0%
#1735000
0s
b10001000111101 6
b10001000111101 m
b10001000111101 t
b11100110010100100010001000111101 u
b10100010 N
1%
#1740000
0%
#1745000
1s
b100010001111010 6
b100010001111010 m
b100010001111010 t
b10100011 N
b11001100101001000100010001111010 u
1%
#1750000
0%
#1755000
0s
b1000100011110101 6
b1000100011110101 m
b1000100011110101 t
b10011001010010001000100011110101 u
b10100100 N
1%
#1760000
0%
#1765000
1s
b1000111101010 6
b1000111101010 m
b1000111101010 t
b10100101 N
b110010100100010001000111101010 u
1%
#1770000
0%
#1775000
0s
b10001111010101 6
b10001111010101 m
b10001111010101 t
b1100101001000100010001111010101 u
b10100110 N
1%
#1780000
0%
#1785000
0s
b100011110101010 6
b100011110101010 m
b100011110101010 t
b10100111 N
b11001010010001000100011110101010 u
1%
#1790000
0%
