quantum_gate_and_controller/quantum_system.vcd
$date
	Tue Jan 06 23:11:00 2026
$end
$version
	Icarus Verilog
$end
$timescale
	1ps
$end
$scope module tb_quantum_system $end
$var wire 2 ! status [1:0] $end
$var wire 1 " gate_busy $end
$var wire 32 # display_beta [31:0] $end
$var wire 32 $ display_alpha [31:0] $end
$var reg 1 % clk $end
$var reg 1 & cmd_execute $end
$var reg 3 ' cmd_gate [2:0] $end
$var reg 1 ( reset $end
$var real 1 ) alpha_real $end
$var real 1 * beta_real $end
$var integer 32 + logfile [31:0] $end
$var real 1 , prob0_real $end
$var real 1 - prob1_real $end
$scope function fp_to_real $end
$var reg 32 . fp_val [31:0] $end
$upscope $end
$scope function get_state_name $end
$var reg 32 / alpha [31:0] $end
$var reg 32 0 beta [31:0] $end
$var real 1 1 a $end
$var real 1 2 b $end
$upscope $end
$scope module dut $end
$var wire 1 % clk $end
$var wire 1 & cmd_execute $end
$var wire 3 3 cmd_gate [2:0] $end
$var wire 1 ( reset $end
$var wire 32 4 state_prob_0 [31:0] $end
$var wire 32 5 state_beta_out [31:0] $end
$var wire 32 6 state_alpha_out [31:0] $end
$var wire 32 7 rng_value [31:0] $end
$var wire 32 8 next_beta_in [31:0] $end
$var wire 32 9 next_alpha_in [31:0] $end
$var wire 1 : meas_done_sig $end
$var wire 1 ; meas_bit $end
$var wire 32 < meas_beta_out [31:0] $end
$var wire 32 = meas_alpha_out [31:0] $end
$var wire 1 " gate_busy $end
$var wire 32 > gate_beta_out [31:0] $end
$var wire 32 ? gate_alpha_out [31:0] $end
$var parameter 3 @ CMD_MEASURE $end
$var parameter 32 A GATE_DELAY $end
$var parameter 2 B ST_EXECUTE $end
$var parameter 2 C ST_IDLE $end
$var parameter 2 D ST_MEASURE $end
$var parameter 2 E ST_UPDATE $end
$var reg 3 F current_gate [2:0] $end
$var reg 2 G current_state [1:0] $end
$var reg 32 H display_alpha [31:0] $end
$var reg 32 I display_beta [31:0] $end
$var reg 1 J meas_trigger $end
$var reg 1 K measure_result $end
$var reg 2 L next_state [1:0] $end
$var reg 1 M reg_update_en $end
$var reg 2 N status [1:0] $end
$var reg 32 O timer_counter [31:0] $end
$var reg 1 P timer_done $end
$scope module gate_unit $end
$var wire 3 Q gate_type [2:0] $end
$var wire 1 R ov_h_beta $end
$var wire 1 S ov_h_alpha $end
$var wire 32 T hadamard_sum [31:0] $end
$var wire 32 U hadamard_diff [31:0] $end
$var wire 32 V beta_in [31:0] $end
$var wire 32 W beta_h_core [31:0] $end
$var wire 32 X alpha_in [31:0] $end
$var wire 32 Y alpha_h_core [31:0] $end
$var parameter 32 Z FIXED_ONE $end
$var parameter 32 [ FIXED_ZERO $end
$var parameter 3 \ GATE_H $end
$var parameter 3 ] GATE_IDLE $end
$var parameter 3 ^ GATE_X $end
$var parameter 3 _ GATE_Y $end
$var parameter 3 ` GATE_Z $end
$var parameter 32 a INV_SQRT2 $end
$var reg 32 b alpha_out [31:0] $end
$var reg 32 c beta_out [31:0] $end
$scope module u_hadamard_alpha $end
$var wire 32 d a [31:0] $end
$var wire 32 e b [31:0] $end
$var wire 1 S overflow $end
$var wire 64 f temp_product [63:0] $end
$var wire 32 g product [31:0] $end
$upscope $end
$scope module u_hadamard_beta $end
$var wire 32 h a [31:0] $end
$var wire 32 i b [31:0] $end
$var wire 1 R overflow $end
$var wire 64 j temp_product [63:0] $end
$var wire 32 k product [31:0] $end
$upscope $end
$upscope $end
$scope module meas_unit $end
$var wire 1 % clk $end
$var wire 1 J measure_en $end
$var wire 1 ( reset $end
$var wire 32 l random_val [31:0] $end
$var wire 32 m prob_0 [31:0] $end
$var parameter 32 n ONE $end
$var parameter 32 o ZERO $end
$var reg 1 : done $end
$var reg 1 ; measured_bit $end
$var reg 32 p new_alpha [31:0] $end
$var reg 32 q new_beta [31:0] $end
$upscope $end
$scope module rng_inst $end
$var wire 1 % clk $end
$var wire 1 r feedback $end
$var wire 1 ( reset $end
$var wire 32 s random_out [31:0] $end
$var reg 32 t lfsr_reg [31:0] $end
$upscope $end
$scope module state_reg $end
$var wire 32 u alpha_in [31:0] $end
$var wire 32 v beta_in [31:0] $end
$var wire 1 % clk $end
$var wire 1 ( reset $end
$var wire 1 M update_en $end
$var wire 32 w total_prob [31:0] $end
$var wire 32 x prob_1 [31:0] $end
$var wire 32 y prob_0 [31:0] $end
$var parameter 32 z FIXED_ONE $end
$var parameter 32 { FIXED_ZERO $end
$var reg 32 | alpha_out [31:0] $end
$var reg 32 } beta_out [31:0] $end
$scope function fp_square $end
$var reg 32 ~ a [31:0] $end
$var reg 64 !" temp [63:0] $end
$upscope $end
$upscope $end
$upscope $end
$scope task apply_gate $end
$var reg 3 "" gate_code [2:0] $end
$var reg 80 #" gate_name [79:0] $end
$upscope $end
$upscope $end
$enddefinitions $end
$comment Show the parameter values. $end
$dumpall
b0 {
b10000000000000000 z
b0 o
b10000000000000000 n
b1011010100000100 a
b11 `
b100 _
b10 ^
b0 ]
b1 \
b0 [
b10000000000000000 Z
b10 E
b11 D
b0 C
b1 B
b1111101000 A
b101 @
$end
#0
$dumpvars
bx #"
bx ""
b0 !"
b0 ~
b0 }
b10000000000000000 |
b10000000000000000 y
b0 x
b10000000000000000 w
b0 v
b10000000000000000 u
b11011110101011011011111011101111 t
b1011111011101111 s
0r
b0 q
b10000000000000000 p
b10000000000000000 m
b1011111011101111 l
b1011010100000100 k
b10110101000001000000000000000000 j
b1011010100000100 i
b10000000000000000 h
b1011010100000100 g
b10110101000001000000000000000000 f
b1011010100000100 e
b10000000000000000 d
b0 c
b10000000000000000 b
b1011010100000100 Y
b10000000000000000 X
b1011010100000100 W
b0 V
b10000000000000000 U
b10000000000000000 T
0S
0R
bx Q
0P
b0 O
b0 N
0M
b0 L
0K
0J
bx I
bx H
b0 G
bx F
b10000000000000000 ?
b0 >
b10000000000000000 =
b0 <
0;
0:
b10000000000000000 9
b0 8
b1011111011101111 7
b10000000000000000 6
b0 5
b10000000000000000 4
b0 3
r0 2
r0 1
bx 0
bx /
bx .
r0 -
r0 ,
b10000000000000000000000000000011 +
r0 *
r0 )
1(
b0 '
0&
0%
bx $
bx #
0"
b0 !
$end
#5000
r1 ,
r1 )
b0 .
b0 #
b0 I
b10000000000000000 $
b10000000000000000 H
1%
#10000
0%
#15000
1%
#20000
0%
#25000
1%
#30000
0%
#35000
1%
#40000
0%
#45000
1%
#50000
0%
#55000
1%
#60000
0%
#65000
1%
#70000
0%
#75000
1%
#80000
0%
#85000
1%
#90000
0%
#95000
1%
#100000
0%
b1 '
b1 3
b1100100011000010110110101100001011100100110010000100000001010000100100000101001 #"
b1 ""
0(
#105000
0r
b111110111011110 7
b111110111011110 l
b111110111011110 s
b10111101010110110111110111011110 t
1%
#110000
b1011010100000100 9
b1011010100000100 u
b1011010100000100 8
b1011010100000100 v
b1011010100000100 >
b1011010100000100 c
b1011010100000100 ?
b1011010100000100 b
b1 L
b1 F
b1 Q
0%
1&
#115000
1r
b1111101110111100 7
b1111101110111100 l
b1111101110111100 s
b1 !
b1 N
b1111010101101101111101110111100 t
1"
b1 G
1%
#120000
b1 !
b1 N
0%
0&
#125000
1r
b1111011101111001 7
b1111011101111001 l
b1111011101111001 s
b1 O
b11110101011011011111011101111001 t
1%
#130000
0%
#135000
1r
b1110111011110011 7
b1110111011110011 l
b1110111011110011 s
b11101010110110111110111011110011 t
b10 O
1%
#140000
0%
#145000
0r
b1101110111100111 7
b1101110111100111 l
b1101110111100111 s
b11 O
b11010101101101111101110111100111 t
1%
#150000
0%
#155000
1r
b1011101111001110 7
b1011101111001110 l
b1011101111001110 s
b10101011011011111011101111001110 t
b100 O
1%
#160000
0%
#165000
1r
b111011110011101 7
b111011110011101 l
b111011110011101 s
b101 O
b1010110110111110111011110011101 t
1%
#170000
0%
#175000
0r
b1110111100111011 7
b1110111100111011 l
b1110111100111011 s
b10101101101111101110111100111011 t
b110 O
1%
#180000
0%
#185000
0r
b1101111001110110 7
b1101111001110110 l
b1101111001110110 s
b111 O
b1011011011111011101111001110110 t
1%
#190000
0%
#195000
0r
b1011110011101100 7
b1011110011101100 l
b1011110011101100 s
b10110110111110111011110011101100 t
b1000 O
1%
#200000
0%
#205000
1r
b111100111011000 7
b111100111011000 l
b111100111011000 s
b1001 O
b1101101111101110111100111011000 t
1%
#210000
0%
#215000
1r
b1111001110110001 7
b1111001110110001 l
b1111001110110001 s
b11011011111011101111001110110001 t
b1010 O
1%
#220000
0%
#225000
1r
b1110011101100011 7
b1110011101100011 l
b1110011101100011 s
b1011 O
b10110111110111011110011101100011 t
1%
#230000
0%
#235000
b1100111011000111 7
b1100111011000111 l
b1100111011000111 s
b1101111101110111100111011000111 t
b1100 O
1%
#240000
0%
#245000
0r
b1001110110001111 7
b1001110110001111 l
b1001110110001111 s
b1101 O
b11011111011101111001110110001111 t
1%
#250000
0%
#255000
1r
b11101100011110 7
b11101100011110 l
b11101100011110 s
b10111110111011110011101100011110 t
b1110 O
1%
#260000
0%
#265000
1r
b111011000111101 7
b111011000111101 l
b111011000111101 s
b1111 O
b1111101110111100111011000111101 t
1%
#270000
0%
#275000
0r
b1110110001111011 7
b1110110001111011 l
b1110110001111011 s
b11111011101111001110110001111011 t
b10000 O
1%
#280000
0%
#285000
1r
b1101100011110110 7
b1101100011110110 l
b1101100011110110 s
b10001 O
b11110111011110011101100011110110 t
1%
#290000
0%
#295000
1r
b1011000111101101 7
b1011000111101101 l
b1011000111101101 s
b11101110111100111011000111101101 t
b10010 O
1%
#300000
0%
#305000
0r
b110001111011011 7
b110001111011011 l
b110001111011011 s
b10011 O
b11011101111001110110001111011011 t
1%
#310000
0%
#315000
0r
b1100011110110110 7
b1100011110110110 l
b1100011110110110 s
b10111011110011101100011110110110 t
b10100 O
1%
#320000
0%
#325000
0r
b1000111101101100 7
b1000111101101100 l
b1000111101101100 s
b10101 O
b1110111100111011000111101101100 t
1%
#330000
0%
#335000
b1111011011000 7
b1111011011000 l
b1111011011000 s
b11101111001110110001111011011000 t
b10110 O
1%
#340000
0%
#345000
b11110110110000 7
b11110110110000 l
b11110110110000 s
b10111 O
b11011110011101100011110110110000 t
1%
#350000
0%
#355000
b111101101100000 7
b111101101100000 l
b111101101100000 s
b10111100111011000111101101100000 t
b11000 O
1%
#360000
0%
#365000
b1111011011000000 7
b1111011011000000 l
b1111011011000000 s
b11001 O
b1111001110110001111011011000000 t
1%
#370000
0%
#375000
b1110110110000000 7
b1110110110000000 l
b1110110110000000 s
b11110011101100011110110110000000 t
b11010 O
1%
#380000
0%
#385000
b1101101100000000 7
b1101101100000000 l
b1101101100000000 s
b11011 O
b11100111011000111101101100000000 t
1%
#390000
0%
#395000
1r
b1011011000000000 7
b1011011000000000 l
b1011011000000000 s
b11001110110001111011011000000000 t
b11100 O
1%
#400000
0%
#405000
0r
b110110000000001 7
b110110000000001 l
b110110000000001 s
b11101 O
b10011101100011110110110000000001 t
1%
#410000
0%
#415000
1r
b1101100000000010 7
b1101100000000010 l
b1101100000000010 s
b111011000111101101100000000010 t
b11110 O
1%
#420000
0%
#425000
0r
b1011000000000101 7
b1011000000000101 l
b1011000000000101 s
b11111 O
b1110110001111011011000000000101 t
1%
#430000
0%
#435000
1r
b110000000001010 7
b110000000001010 l
b110000000001010 s
b11101100011110110110000000001010 t
b100000 O
1%
#440000
0%
#445000
1r
b1100000000010101 7
b1100000000010101 l
b1100000000010101 s
b100001 O
b11011000111101101100000000010101 t
1%
#450000
0%
#455000
0r
b1000000000101011 7
b1000000000101011 l
b1000000000101011 s
b10110001111011011000000000101011 t
b100010 O
1%
#460000
0%
#465000
1r
b1010110 7
b1010110 l
b1010110 s
b100011 O
b1100011110110110000000001010110 t
1%
#470000
0%
#475000
1r
b10101101 7
b10101101 l
b10101101 s
b11000111101101100000000010101101 t
b100100 O
1%
#480000
0%
#485000
0r
b101011011 7
b101011011 l
b101011011 s
b100101 O
b10001111011011000000000101011011 t
1%
#490000
0%
#495000
1r
b1010110110 7
b1010110110 l
b1010110110 s
b11110110110000000001010110110 t
b100110 O
1%
#500000
0%
#505000
0r
b10101101101 7
b10101101101 l
b10101101101 s
b100111 O
b111101101100000000010101101101 t
1%
#510000
0%
#515000
0r
b101011011010 7
b101011011010 l
b101011011010 s
b1111011011000000000101011011010 t
b101000 O
1%
#520000
0%
#525000
1r
b1010110110100 7
b1010110110100 l
b1010110110100 s
b101001 O
b11110110110000000001010110110100 t
1%
#530000
0%
#535000
0r
b10101101101001 7
b10101101101001 l
b10101101101001 s
b11101101100000000010101101101001 t
b101010 O
1%
#540000
0%
#545000
0r
b101011011010010 7
b101011011010010 l
b101011011010010 s
b101011 O
b11011011000000000101011011010010 t
1%
#550000
0%
#555000
1r
b1010110110100100 7
b1010110110100100 l
b1010110110100100 s
b10110110000000001010110110100100 t
b101100 O
1%
#560000
0%
#565000
1r
b101101101001001 7
b101101101001001 l
b101101101001001 s
b101101 O
b1101100000000010101101101001001 t
1%
#570000
0%
#575000
1r
b1011011010010011 7
b1011011010010011 l
b1011011010010011 s
b11011000000000101011011010010011 t
b101110 O
1%
#580000
0%
#585000
b110110100100111 7
b110110100100111 l
b110110100100111 s
b101111 O
b10110000000001010110110100100111 t
1%
#590000
0%
#595000
0r
b1101101001001111 7
b1101101001001111 l
b1101101001001111 s
b1100000000010101101101001001111 t
b110000 O
1%
#600000
0%
#605000
0r
b1011010010011110 7
b1011010010011110 l
b1011010010011110 s
b110001 O
b11000000000101011011010010011110 t
1%
#610000
0%
#615000
0r
b110100100111100 7
b110100100111100 l
b110100100111100 s
b10000000001010110110100100111100 t
b110010 O
1%
#620000
0%
#625000
b1101001001111000 7
b1101001001111000 l
b1101001001111000 s
b110011 O
b10101101101001001111000 t
1%
#630000
0%
#635000
1r
b1010010011110000 7
b1010010011110000 l
b1010010011110000 s
b101011011010010011110000 t
b110100 O
1%
#640000
0%
#645000
1r
b100100111100001 7
b100100111100001 l
b100100111100001 s
b110101 O
b1010110110100100111100001 t
1%
#650000
0%
#655000
1r
b1001001111000011 7
b1001001111000011 l
b1001001111000011 s
b10101101101001001111000011 t
b110110 O
1%
#660000
0%
#665000
b10011110000111 7
b10011110000111 l
b10011110000111 s
b110111 O
b101011011010010011110000111 t
1%
#670000
0%
#675000
0r
b100111100001111 7
b100111100001111 l
b100111100001111 s
b1010110110100100111100001111 t
b111000 O
1%
#680000
0%
#685000
0r
b1001111000011110 7
b1001111000011110 l
b1001111000011110 s
b111001 O
b10101101101001001111000011110 t
1%
#690000
0%
#695000
1r
b11110000111100 7
b11110000111100 l
b11110000111100 s
b101011011010010011110000111100 t
b111010 O
1%
#700000
0%
#705000
1r
b111100001111001 7
b111100001111001 l
b111100001111001 s
b111011 O
b1010110110100100111100001111001 t
1%
#710000
0%
#715000
0r
b1111000011110011 7
b1111000011110011 l
b1111000011110011 s
b10101101101001001111000011110011 t
b111100 O
1%
#720000
0%
#725000
1r
b1110000111100110 7
b1110000111100110 l
b1110000111100110 s
b111101 O
b1011011010010011110000111100110 t
1%
#730000
0%
#735000
0r
b1100001111001101 7
b1100001111001101 l
b1100001111001101 s
b10110110100100111100001111001101 t
b111110 O
1%
#740000
0%
#745000
0r
b1000011110011010 7
b1000011110011010 l
b1000011110011010 s
b111111 O
b1101101001001111000011110011010 t
1%
#750000
0%
#755000
1r
b111100110100 7
b111100110100 l
b111100110100 s
b11011010010011110000111100110100 t
b1000000 O
1%
#760000
0%
#765000
0r
b1111001101001 7
b1111001101001 l
b1111001101001 s
b1000001 O
b10110100100111100001111001101001 t
1%
#770000
0%
#775000
0r
b11110011010010 7
b11110011010010 l
b11110011010010 s
b1101001001111000011110011010010 t
b1000010 O
1%
#780000
0%
#785000
0r
b111100110100100 7
b111100110100100 l
b111100110100100 s
b1000011 O
b11010010011110000111100110100100 t
1%
#790000
0%
#795000
b1111001101001000 7
b1111001101001000 l
b1111001101001000 s
b10100100111100001111001101001000 t
b1000100 O
1%
#800000
0%
#805000
1r
b1110011010010000 7
b1110011010010000 l
b1110011010010000 s
b1000101 O
b1001001111000011110011010010000 t
1%
#810000
0%
#815000
0r
b1100110100100001 7
b1100110100100001 l
b1100110100100001 s
b10010011110000111100110100100001 t
b1000110 O
1%
#820000
0%
#825000
1r
b1001101001000010 7
b1001101001000010 l
b1001101001000010 s
b1000111 O
b100111100001111001101001000010 t
1%
#830000
0%
#835000
1r
b11010010000101 7
b11010010000101 l
b11010010000101 s
b1001111000011110011010010000101 t
b1001000 O
1%
#840000
0%
#845000
1r
b110100100001011 7
b110100100001011 l
b110100100001011 s
b1001001 O
b10011110000111100110100100001011 t
1%
#850000
0%
#855000
b1101001000010111 7
b1101001000010111 l
b1101001000010111 s
b111100001111001101001000010111 t
b1001010 O
1%
#860000
0%
#865000
b1010010000101111 7
b1010010000101111 l
b1010010000101111 s
b1001011 O
b1111000011110011010010000101111 t
1%
#870000
0%
#875000
0r
b100100001011111 7
b100100001011111 l
b100100001011111 s
b11110000111100110100100001011111 t
b1001100 O
1%
#880000
0%
#885000
1r
b1001000010111110 7
b1001000010111110 l
b1001000010111110 s
b1001101 O
b11100001111001101001000010111110 t
1%
#890000
0%
#895000
0r
b10000101111101 7
b10000101111101 l
b10000101111101 s
b11000011110011010010000101111101 t
b1001110 O
1%
#900000
0%
#905000
0r
b100001011111010 7
b100001011111010 l
b100001011111010 s
b1001111 O
b10000111100110100100001011111010 t
1%
#910000
0%
#915000
1r
b1000010111110100 7
b1000010111110100 l
b1000010111110100 s
b1111001101001000010111110100 t
b1010000 O
1%
#920000
0%
#925000
0r
b101111101001 7
b101111101001 l
b101111101001 s
b1010001 O
b11110011010010000101111101001 t
1%
#930000
0%
#935000
1r
b1011111010010 7
b1011111010010 l
b1011111010010 s
b111100110100100001011111010010 t
b1010010 O
1%
#940000
0%
#945000
0r
b10111110100101 7
b10111110100101 l
b10111110100101 s
b1010011 O
b1111001101001000010111110100101 t
1%
#950000
0%
#955000
0r
b101111101001010 7
b101111101001010 l
b101111101001010 s
b11110011010010000101111101001010 t
b1010100 O
1%
#960000
0%
#965000
1r
b1011111010010100 7
b1011111010010100 l
b1011111010010100 s
b1010101 O
b11100110100100001011111010010100 t
1%
#970000
0%
#975000
1r
b111110100101001 7
b111110100101001 l
b111110100101001 s
b11001101001000010111110100101001 t
b1010110 O
1%
#980000
0%
#985000
1r
b1111101001010011 7
b1111101001010011 l
b1111101001010011 s
b1010111 O
b10011010010000101111101001010011 t
1%
#990000
0%
#995000
0r
b1111010010100111 7
b1111010010100111 l
b1111010010100111 s
b110100100001011111010010100111 t
b1011000 O
1%
#1000000
0%
#1005000
1r
b1110100101001110 7
b1110100101001110 l
b1110100101001110 s
b1011001 O
b1101001000010111110100101001110 t
1%
#1010000
0%
#1015000
0r
b1101001010011101 7
b1101001010011101 l
b1101001010011101 s
b11010010000101111101001010011101 t
b1011010 O
1%
#1020000
0%
#1025000
1r
b1010010100111010 7
b1010010100111010 l
b1010010100111010 s
b1011011 O
b10100100001011111010010100111010 t
1%
#1030000
0%
#1035000
1r
b100101001110101 7
b100101001110101 l
b100101001110101 s
b1001000010111110100101001110101 t
b1011100 O
1%
#1040000
0%
#1045000
0r
b1001010011101011 7
b1001010011101011 l
b1001010011101011 s
b1011101 O
b10010000101111101001010011101011 t
1%
#1050000
0%
#1055000
0r
b10100111010110 7
b10100111010110 l
b10100111010110 s
b100001011111010010100111010110 t
b1011110 O
1%
#1060000
0%
#1065000
1r
b101001110101100 7
b101001110101100 l
b101001110101100 s
b1011111 O
b1000010111110100101001110101100 t
1%
#1070000
0%
#1075000
1r
b1010011101011001 7
b1010011101011001 l
b1010011101011001 s
b10000101111101001010011101011001 t
b1100000 O
1%
#1080000
0%
#1085000
1r
b100111010110011 7
b100111010110011 l
b100111010110011 s
b1100001 O
b1011111010010100111010110011 t
1%
#1090000
0%
#1095000
0r
b1001110101100111 7
b1001110101100111 l
b1001110101100111 s
b10111110100101001110101100111 t
b1100010 O
1%
#1100000
0%
#1105000
0r
b11101011001110 7
b11101011001110 l
b11101011001110 s
b1100011 O
b101111101001010011101011001110 t
1%
#1110000
0%
#1115000
0r
b111010110011100 7
b111010110011100 l
b111010110011100 s
b1011111010010100111010110011100 t
b1100100 O
1%
#1120000
0%
#1125000
1r
b1110101100111000 7
b1110101100111000 l
b1110101100111000 s
b1100101 O
b10111110100101001110101100111000 t
1%
#1130000
0%
#1135000
0r
b1101011001110001 7
b1101011001110001 l
b1101011001110001 s
b1111101001010011101011001110001 t
b1100110 O
1%
#1140000
0%
#1145000
0r
b1010110011100010 7
b1010110011100010 l
b1010110011100010 s
b1100111 O
b11111010010100111010110011100010 t
1%
#1150000
0%
#1155000
0r
b101100111000100 7
b101100111000100 l
b101100111000100 s
b11110100101001110101100111000100 t
b1101000 O
1%
#1160000
0%
#1165000
1r
b1011001110001000 7
b1011001110001000 l
b1011001110001000 s
b1101001 O
b11101001010011101011001110001000 t
1%
#1170000
0%
#1175000
0r
b110011100010001 7
b110011100010001 l
b110011100010001 s
b11010010100111010110011100010001 t
b1101010 O
1%
#1180000
0%
#1185000
1r
b1100111000100010 7
b1100111000100010 l
b1100111000100010 s
b1101011 O
b10100101001110101100111000100010 t
1%
#1190000
0%
#1195000
0r
b1001110001000101 7
b1001110001000101 l
b1001110001000101 s
b1001010011101011001110001000101 t
b1101100 O
1%
#1200000
0%
#1205000
1r
b11100010001010 7
b11100010001010 l
b11100010001010 s
b1101101 O
b10010100111010110011100010001010 t
1%
#1210000
0%
#1215000
1r
b111000100010101 7
b111000100010101 l
b111000100010101 s
b101001110101100111000100010101 t
b1101110 O
1%
#1220000
0%
b1100001011101010110110001101001001011010101100000100000001010000101100000101001 #"
b10 ""
r1 1
b0 .
b10000000000000000 /
b0 0
#1225000
1r
b1110001000101011 7
b1110001000101011 l
b1110001000101011 s
b1101111 O
b1010011101011001110001000101011 t
1%
#1230000
0%
#1235000
b1100010001010111 7
b1100010001010111 l
b1100010001010111 s
b10100111010110011100010001010111 t
b1110000 O
1%
#1240000
0%
#1245000
b1000100010101111 7
b1000100010101111 l
b1000100010101111 s
b1110001 O
b1001110101100111000100010101111 t
1%
#1250000
0%
#1255000
0r
b1000101011111 7
b1000101011111 l
b1000101011111 s
b10011101011001110001000101011111 t
b1110010 O
1%
#1260000
0%
#1265000
1r
b10001010111110 7
b10001010111110 l
b10001010111110 s
b1110011 O
b111010110011100010001010111110 t
1%
#1270000
0%
#1275000
1r
b100010101111101 7
b100010101111101 l
b100010101111101 s
b1110101100111000100010101111101 t
b1110100 O
1%
#1280000
0%
#1285000
0r
b1000101011111011 7
b1000101011111011 l
b1000101011111011 s
b1110101 O
b11101011001110001000101011111011 t
1%
#1290000
0%
#1295000
1r
b1010111110110 7
b1010111110110 l
b1010111110110 s
b11010110011100010001010111110110 t
b1110110 O
1%
#1300000
0%
#1305000
1r
b10101111101101 7
b10101111101101 l
b10101111101101 s
b1110111 O
b10101100111000100010101111101101 t
1%
#1310000
0%
#1315000
0r
b101011111011011 7
b101011111011011 l
b101011111011011 s
b1011001110001000101011111011011 t
b1111000 O
1%
#1320000
0%
#1325000
0r
b1010111110110110 7
b1010111110110110 l
b1010111110110110 s
b1111001 O
b10110011100010001010111110110110 t
1%
#1330000
0%
#1335000
0r
b101111101101100 7
b101111101101100 l
b101111101101100 s
b1100111000100010101111101101100 t
b1111010 O
1%
#1340000
0%
#1345000
b1011111011011000 7
b1011111011011000 l
b1011111011011000 s
b1111011 O
b11001110001000101011111011011000 t
1%
#1350000
0%
#1355000
1r
b111110110110000 7
b111110110110000 l
b111110110110000 s
b10011100010001010111110110110000 t
b1111100 O
1%
#1360000
0%
#1365000
1r
b1111101101100001 7
b1111101101100001 l
b1111101101100001 s
b1111101 O
b111000100010101111101101100001 t
1%
#1370000
0%
#1375000
0r
b1111011011000011 7
b1111011011000011 l
b1111011011000011 s
b1110001000101011111011011000011 t
b1111110 O
1%
#1380000
0%
#1385000
1r
b1110110110000110 7
b1110110110000110 l
b1110110110000110 s
b1111111 O
b11100010001010111110110110000110 t
1%
#1390000
0%
#1395000
0r
b1101101100001101 7
b1101101100001101 l
b1101101100001101 s
b11000100010101111101101100001101 t
b10000000 O
1%
#1400000
0%
#1405000
1r
b1011011000011010 7
b1011011000011010 l
b1011011000011010 s
b10000001 O
b10001000101011111011011000011010 t
1%
#1410000
0%
#1415000
1r
b110110000110101 7
b110110000110101 l
b110110000110101 s
b10001010111110110110000110101 t
b10000010 O
1%
#1420000
0%
#1425000
1r
b1101100001101011 7
b1101100001101011 l
b1101100001101011 s
b10000011 O
b100010101111101101100001101011 t
1%
#1430000
0%
#1435000
b1011000011010111 7
b1011000011010111 l
b1011000011010111 s
b1000101011111011011000011010111 t
b10000100 O
1%
#1440000
0%
#1445000
0r
b110000110101111 7
b110000110101111 l
b110000110101111 s
b10000101 O
b10001010111110110110000110101111 t
1%
#1450000
0%
#1455000
0r
b1100001101011110 7
b1100001101011110 l
b1100001101011110 s
b10101111101101100001101011110 t
b10000110 O
1%
#1460000
0%
#1465000
1r
b1000011010111100 7
b1000011010111100 l
b1000011010111100 s
b10000111 O
b101011111011011000011010111100 t
1%
#1470000
0%
#1475000
1r
b110101111001 7
b110101111001 l
b110101111001 s
b1010111110110110000110101111001 t
b10001000 O
1%
#1480000
0%
#1485000
0r
b1101011110011 7
b1101011110011 l
b1101011110011 s
b10001001 O
b10101111101101100001101011110011 t
1%
#1490000
0%
#1495000
0r
b11010111100110 7
b11010111100110 l
b11010111100110 s
b1011111011011000011010111100110 t
b10001010 O
1%
#1500000
0%
#1505000
1r
b110101111001100 7
b110101111001100 l
b110101111001100 s
b10001011 O
b10111110110110000110101111001100 t
1%
#1510000
0%
#1515000
0r
b1101011110011001 7
b1101011110011001 l
b1101011110011001 s
b1111101101100001101011110011001 t
b10001100 O
1%
#1520000
0%
#1525000
1r
b1010111100110010 7
b1010111100110010 l
b1010111100110010 s
b10001101 O
b11111011011000011010111100110010 t
1%
#1530000
0%
#1535000
0r
b101111001100101 7
b101111001100101 l
b101111001100101 s
b11110110110000110101111001100101 t
b10001110 O
1%
#1540000
0%
#1545000
0r
b1011110011001010 7
b1011110011001010 l
b1011110011001010 s
b10001111 O
b11101101100001101011110011001010 t
1%
#1550000
0%
#1555000
1r
b111100110010100 7
b111100110010100 l
b111100110010100 s
b11011011000011010111100110010100 t
b10010000 O
1%
#1560000
0%
#1565000
0r
b1111001100101001 7
b1111001100101001 l
b1111001100101001 s
b10010001 O
b10110110000110101111001100101001 t
1%
#1570000
0%
#1575000
0r
b1110011001010010 7
b1110011001010010 l
b1110011001010010 s
b1101100001101011110011001010010 t
b10010010 O
1%
#1580000
0%
#1585000
0r
b1100110010100100 7
b1100110010100100 l
b1100110010100100 s
b10010011 O
b11011000011010111100110010100100 t
1%
#1590000
0%
#1595000
1r
b1001100101001000 7
b1001100101001000 l
b1001100101001000 s
b10110000110101111001100101001000 t
b10010100 O
1%
#1600000
0%
#1605000
0r
b11001010010001 7
b11001010010001 l
b11001010010001 s
b10010101 O
b1100001101011110011001010010001 t
1%
#1610000
0%
#1615000
0r
b110010100100010 7
b110010100100010 l
b110010100100010 s
b11000011010111100110010100100010 t
b10010110 O
1%
#1620000
0%
#1625000
0r
b1100101001000100 7
b1100101001000100 l
b1100101001000100 s
b10010111 O
b10000110101111001100101001000100 t
1%
#1630000
0%
#1635000
1r
b1001010010001000 7
b1001010010001000 l
b1001010010001000 s
b1101011110011001010010001000 t
b10011000 O
1%
#1640000
0%
#1645000
0r
b10100100010001 7
b10100100010001 l
b10100100010001 s
b10011001 O
b11010111100110010100100010001 t
1%
#1650000
0%
#1655000
0r
b101001000100010 7
b101001000100010 l
b101001000100010 s
b110101111001100101001000100010 t
b10011010 O
1%
#1660000
0%
#1665000
0r
b1010010001000100 7
b1010010001000100 l
b1010010001000100 s
b10011011 O
b1101011110011001010010001000100 t
1%
#1670000
0%
#1675000
1r
b100100010001000 7
b100100010001000 l
b100100010001000 s
b11010111100110010100100010001000 t
b10011100 O
1%
#1680000
0%
#1685000
1r
b1001000100010001 7
b1001000100010001 l
b1001000100010001 s
b10011101 O
b10101111001100101001000100010001 t
1%
#1690000
0%
#1695000
1r
b10001000100011 7
b10001000100011 l
b10001000100011 s
b1011110011001010010001000100011 t
b10011110 O
1%
#1700000
0%
#1705000
b100010001000111 7
b100010001000111 l
b100010001000111 s
b10011111 O
b10111100110010100100010001000111 t
1%
#1710000
0%
#1715000
0r
b1000100010001111 7
b1000100010001111 l
b1000100010001111 s
b1111001100101001000100010001111 t
b10100000 O
1%
#1720000
0%
#1725000
1r
b1000100011110 7
b1000100011110 l
b1000100011110 s
b10100001 O
b11110011001010010001000100011110 t
1%
#1730000
0%
#1735000
0r
b10001000111101 7
b10001000111101 l
b10001000111101 s
b11100110010100100010001000111101 t
b10100010 O
1%
#1740000
0%
#1745000
1r
b100010001111010 7
b100010001111010 l
b100010001111010 s
b10100011 O
b11001100101001000100010001111010 t
1%
#1750000
0%
#1755000
0r
b1000100011110101 7
b1000100011110101 l
b1000100011110101 s
b10011001010010001000100011110101 t
b10100100 O
1%
#1760000
0%
#1765000
1r
b1000111101010 7
b1000111101010 l
b1000111101010 s
b10100101 O
b110010100100010001000111101010 t
1%
#1770000
0%
#1775000
0r
b10001111010101 7
b10001111010101 l
b10001111010101 s
b1100101001000100010001111010101 t
b10100110 O
1%
#1780000
0%
#1785000
0r
b100011110101010 7
b100011110101010 l
b100011110101010 s
b10100111 O
b11001010010001000100011110101010 t
1%
#1790000
0%
#1795000
1r
b1000111101010100 7
b1000111101010100 l
b1000111101010100 s
b10010100100010001000111101010100 t
b10101000 O
1%
#1800000
0%
