mips_qpu.vcd
$date
	Mon Jan 05 23:26:39 2026
$end
$version
	Icarus Verilog
$end
$timescale
	1ps
$end
$scope module tb_mips_qpu_top $end
$var wire 1 ! quantum_en $end
$var wire 2 " q_status [1:0] $end
$var wire 1 # q_busy $end
$var wire 32 $ q_beta [31:0] $end
$var wire 32 % q_alpha [31:0] $end
$var wire 32 & pc [31:0] $end
$var wire 32 ' instr [31:0] $end
$var reg 1 ( clk $end
$var reg 1 ) reset $end
$var real 1 * alpha_real $end
$var real 1 + beta_real $end
$scope function fp_to_real $end
$var reg 32 , fp_val [31:0] $end
$upscope $end
$scope module dut $end
$var wire 1 ( clk $end
$var wire 1 ) reset $end
$var wire 1 - reg_write $end
$var wire 1 . reg_dst $end
$var wire 1 ! quantum_en $end
$var wire 2 / q_status [1:0] $end
$var wire 1 # q_busy $end
$var wire 32 0 q_beta [31:0] $end
$var wire 32 1 q_alpha [31:0] $end
$var wire 32 2 pc_plus_4 [31:0] $end
$var wire 32 3 pc [31:0] $end
$var wire 6 4 opcode [5:0] $end
$var wire 32 5 next_pc [31:0] $end
$var wire 1 6 mem_write $end
$var wire 1 7 mem_to_reg $end
$var wire 1 8 mem_read $end
$var wire 1 9 jump $end
$var wire 26 : j_addr [25:0] $end
$var wire 32 ; instr [31:0] $end
$var wire 6 < funct [5:0] $end
$var wire 1 = branch $end
$var wire 1 > alu_src $end
$var wire 2 ? alu_op [1:0] $end
$var reg 1 @ cmd_execute $end
$var reg 3 A cmd_gate [2:0] $end
$var reg 1 B prev_quantum_en $end
$scope module decoder $end
$var wire 6 C opcode [5:0] $end
$var reg 2 D alu_op [1:0] $end
$var reg 1 > alu_src $end
$var reg 1 = branch $end
$var reg 1 9 jump $end
$var reg 1 8 mem_read $end
$var reg 1 7 mem_to_reg $end
$var reg 1 6 mem_write $end
$var reg 1 ! quantum_en $end
$var reg 1 . reg_dst $end
$var reg 1 - reg_write $end
$upscope $end
$scope module imem $end
$var wire 32 E instr [31:0] $end
$var wire 32 F pc [31:0] $end
$upscope $end
$scope module pc_reg $end
$var wire 1 ( clk $end
$var wire 32 G next_pc [31:0] $end
$var wire 1 ) rst $end
$var reg 32 H pc [31:0] $end
$upscope $end
$scope module qctrl $end
$var wire 1 ( clk $end
$var wire 1 @ cmd_execute $end
$var wire 3 I cmd_gate [2:0] $end
$var wire 1 ) reset $end
$var wire 1 # gate_busy $end
$var wire 32 J beta_to_gate [31:0] $end
$var wire 32 K beta_from_gate [31:0] $end
$var wire 32 L alpha_to_gate [31:0] $end
$var wire 32 M alpha_from_gate [31:0] $end
$var parameter 32 N GATE_DELAY $end
$var parameter 2 O ST_EXECUTE $end
$var parameter 2 P ST_IDLE $end
$var parameter 2 Q ST_UPDATE $end
$var reg 3 R current_gate [2:0] $end
$var reg 2 S current_state [1:0] $end
$var reg 32 T display_alpha [31:0] $end
$var reg 32 U display_beta [31:0] $end
$var reg 2 V next_state [1:0] $end
$var reg 1 W reg_update_en $end
$var reg 2 X status [1:0] $end
$var reg 32 Y timer_counter [31:0] $end
$var reg 1 Z timer_done $end
$scope module gate_unit $end
$var wire 3 [ gate_type [2:0] $end
$var wire 1 \ ov_h_beta $end
$var wire 1 ] ov_h_alpha $end
$var wire 32 ^ hadamard_sum [31:0] $end
$var wire 32 _ hadamard_diff [31:0] $end
$var wire 32 ` beta_in [31:0] $end
$var wire 32 a beta_h_core [31:0] $end
$var wire 32 b alpha_in [31:0] $end
$var wire 32 c alpha_h_core [31:0] $end
$var parameter 32 d FIXED_ONE $end
$var parameter 32 e FIXED_ZERO $end
$var parameter 3 f GATE_H $end
$var parameter 3 g GATE_IDLE $end
$var parameter 3 h GATE_X $end
$var parameter 3 i GATE_Y $end
$var parameter 3 j GATE_Z $end
$var parameter 32 k INV_SQRT2 $end
$var reg 32 l alpha_out [31:0] $end
$var reg 32 m beta_out [31:0] $end
$scope module u_hadamard_alpha $end
$var wire 32 n a [31:0] $end
$var wire 32 o b [31:0] $end
$var wire 64 p temp_mult [63:0] $end
$var wire 64 q shifted_mult [63:0] $end
$var reg 32 r out [31:0] $end
$var reg 1 ] overflow $end
$upscope $end
$scope module u_hadamard_beta $end
$var wire 32 s a [31:0] $end
$var wire 32 t b [31:0] $end
$var wire 64 u temp_mult [63:0] $end
$var wire 64 v shifted_mult [63:0] $end
$var reg 32 w out [31:0] $end
$var reg 1 \ overflow $end
$upscope $end
$upscope $end
$scope module state_reg $end
$var wire 32 x alpha_in [31:0] $end
$var wire 32 y beta_in [31:0] $end
$var wire 1 ( clk $end
$var wire 1 ) reset $end
$var wire 1 W update_en $end
$var wire 32 z total_prob [31:0] $end
$var wire 32 { prob_1 [31:0] $end
$var wire 32 | prob_0 [31:0] $end
$var parameter 32 } FIXED_ONE $end
$var parameter 32 ~ FIXED_ZERO $end
$var reg 32 !" alpha_out [31:0] $end
$var reg 32 "" beta_out [31:0] $end
$scope function fp_square $end
$var reg 32 #" a [31:0] $end
$var reg 64 $" temp [63:0] $end
$upscope $end
$upscope $end
$upscope $end
$upscope $end
$upscope $end
$enddefinitions $end
$comment Show the parameter values. $end
$dumpall
b0 ~
b10000000000000000 }
b1011010100000100 k
b11 j
b100 i
b10 h
b0 g
b1 f
b0 e
b10000000000000000 d
b10 Q
b0 P
b1 O
b1111101000 N
$end
#0
$dumpvars
b0 $"
b0 #"
b0 ""
b10000000000000000 !"
b10000000000000000 |
b0 {
b10000000000000000 z
b0 y
b10000000000000000 x
b1011010100000100 w
b1011010100000100 v
b10110101000001000000000000000000 u
b1011010100000100 t
b10000000000000000 s
b1011010100000100 r
b1011010100000100 q
b10110101000001000000000000000000 p
b1011010100000100 o
b10000000000000000 n
b0 m
b10000000000000000 l
b1011010100000100 c
b10000000000000000 b
b1011010100000100 a
b0 `
b10000000000000000 _
b10000000000000000 ^
0]
0\
bx [
0Z
b0 Y
b0 X
0W
b0 V
bx U
bx T
b0 S
bx R
b10000000000000000 M
b10000000000000000 L
b0 K
b0 J
b0 I
b0 H
b100 G
b0 F
b100000000010000000000000000101 E
b0 D
b1000 C
0B
b0 A
0@
b0 ?
1>
0=
b101 <
b100000000010000000000000000101 ;
b10000000000000000101 :
09
08
07
06
b100 5
b1000 4
b0 3
b100 2
bx 1
bx 0
b0 /
0.
1-
bx ,
r0 +
r0 *
1)
0(
b100000000010000000000000000101 '
b0 &
bx %
bx $
0#
b0 "
0!
$end
#5000
r1 *
b0 ,
b0 $
b0 0
b0 U
b10000000000000000 %
b10000000000000000 1
b10000000000000000 T
1(
#10000
0(
#15000
1(
#20000
0(
#25000
1(
#30000
0(
#35000
1(
#40000
0(
#45000
1(
#50000
0(
0)
#55000
1!
0-
0>
b1 <
b100000000000000001 :
b10010 4
b10010 C
b1001000000000100000000000000001 '
b1001000000000100000000000000001 ;
b1001000000000100000000000000001 E
b1000 5
b1000 G
b1000 2
b100 &
b100 3
b100 F
b100 H
1(
#60000
0(
#65000
b1011010100000100 K
b1011010100000100 m
b1011010100000100 y
b1011010100000100 M
b1011010100000100 l
b1011010100000100 x
b100 <
b1000100000000000000100 :
b1 R
b1 [
b1 V
b1001000001000100000000000000100 '
b1001000001000100000000000000100 ;
b1001000001000100000000000000100 E
b1100 5
b1100 G
1B
b1 A
b1 I
1@
b1100 2
b1000 &
b1000 3
b1000 F
b1000 H
1(
#70000
0(
#75000
19
0!
b1 <
b1 :
b10 4
b10 C
b1000000000000000000000000001 '
b1000000000000000000000000001 ;
b1000000000000000000000000001 E
b100 5
b100 G
b1 "
b1 /
b1 X
b10000 2
b1100 &
b1100 3
b1100 F
b1100 H
1#
b1 S
0@
1(
#80000
0(
#85000
b1000 5
b1000 G
1!
09
b100000000000000001 :
b10010 4
b10010 C
b1001000000000100000000000000001 '
b1001000000000100000000000000001 ;
b1001000000000100000000000000001 E
0B
b1 Y
b1000 2
b100 &
b100 3
b100 F
b100 H
1(
#90000
0(
#95000
b100 <
b1000100000000000000100 :
b1001000001000100000000000000100 '
b1001000001000100000000000000100 ;
b1001000001000100000000000000100 E
b1100 5
b1100 G
b1 "
b1 /
b1 X
b1100 2
b1000 &
b1000 3
b1000 F
b1000 H
b10 Y
1B
1@
1(
#100000
0(
#105000
19
0!
b1 <
b1 :
b10 4
b10 C
b1 "
b1 /
b1 X
b1000000000000000000000000001 '
b1000000000000000000000000001 ;
b1000000000000000000000000001 E
b100 5
b100 G
0@
b11 Y
b10000 2
b1100 &
b1100 3
b1100 F
b1100 H
1(
#110000
0(
#115000
b1000 5
b1000 G
1!
09
b100000000000000001 :
b10010 4
b10010 C
b1001000000000100000000000000001 '
b1001000000000100000000000000001 ;
b1001000000000100000000000000001 E
b1000 2
b100 &
b100 3
b100 F
b100 H
b100 Y
0B
1(
#120000
0(
#125000
b100 <
b1000100000000000000100 :
b1 "
b1 /
b1 X
b1001000001000100000000000000100 '
b1001000001000100000000000000100 ;
b1001000001000100000000000000100 E
b1100 5
b1100 G
1B
1@
b101 Y
b1100 2
b1000 &
b1000 3
b1000 F
b1000 H
1(
#130000
0(
#135000
19
0!
b1 <
b1 :
b10 4
b10 C
b1000000000000000000000000001 '
b1000000000000000000000000001 ;
b1000000000000000000000000001 E
b100 5
b100 G
b1 "
b1 /
b1 X
b10000 2
b1100 &
b1100 3
b1100 F
b1100 H
b110 Y
0@
1(
#140000
0(
#145000
b1000 5
b1000 G
1!
09
b100000000000000001 :
b10010 4
b10010 C
b1001000000000100000000000000001 '
b1001000000000100000000000000001 ;
b1001000000000100000000000000001 E
0B
b111 Y
b1000 2
b100 &
b100 3
b100 F
b100 H
1(
#150000
0(
#155000
b100 <
b1000100000000000000100 :
b1001000001000100000000000000100 '
b1001000001000100000000000000100 ;
b1001000001000100000000000000100 E
b1100 5
b1100 G
b1 "
b1 /
b1 X
b1100 2
b1000 &
b1000 3
b1000 F
b1000 H
b1000 Y
1B
1@
1(
#160000
0(
#165000
19
0!
b1 <
b1 :
b10 4
b10 C
b1 "
b1 /
b1 X
b1000000000000000000000000001 '
b1000000000000000000000000001 ;
b1000000000000000000000000001 E
b100 5
b100 G
0@
b1001 Y
b10000 2
b1100 &
b1100 3
b1100 F
b1100 H
1(
#170000
0(
#175000
b1000 5
b1000 G
1!
09
b100000000000000001 :
b10010 4
b10010 C
b1001000000000100000000000000001 '
b1001000000000100000000000000001 ;
b1001000000000100000000000000001 E
b1000 2
b100 &
b100 3
b100 F
b100 H
b1010 Y
0B
1(
#180000
0(
#185000
b100 <
b1000100000000000000100 :
b1 "
b1 /
b1 X
b1001000001000100000000000000100 '
b1001000001000100000000000000100 ;
b1001000001000100000000000000100 E
b1100 5
b1100 G
1B
1@
b1011 Y
b1100 2
b1000 &
b1000 3
b1000 F
b1000 H
1(
#190000
0(
#195000
19
0!
b1 <
b1 :
b10 4
b10 C
b1000000000000000000000000001 '
b1000000000000000000000000001 ;
b1000000000000000000000000001 E
b100 5
b100 G
b1 "
b1 /
b1 X
b10000 2
b1100 &
b1100 3
b1100 F
b1100 H
b1100 Y
0@
1(
#200000
0(
#205000
b1000 5
b1000 G
1!
09
b100000000000000001 :
b10010 4
b10010 C
b1001000000000100000000000000001 '
b1001000000000100000000000000001 ;
b1001000000000100000000000000001 E
0B
b1101 Y
b1000 2
b100 &
b100 3
b100 F
b100 H
1(
#210000
0(
#215000
b100 <
b1000100000000000000100 :
b1001000001000100000000000000100 '
b1001000001000100000000000000100 ;
b1001000001000100000000000000100 E
b1100 5
b1100 G
b1 "
b1 /
b1 X
b1100 2
b1000 &
b1000 3
b1000 F
b1000 H
b1110 Y
1B
1@
1(
#220000
0(
#225000
19
0!
b1 <
b1 :
b10 4
b10 C
b1 "
b1 /
b1 X
b1000000000000000000000000001 '
b1000000000000000000000000001 ;
b1000000000000000000000000001 E
b100 5
b100 G
0@
b1111 Y
b10000 2
b1100 &
b1100 3
b1100 F
b1100 H
1(
#230000
0(
#235000
b1000 5
b1000 G
1!
09
b100000000000000001 :
b10010 4
b10010 C
b1001000000000100000000000000001 '
b1001000000000100000000000000001 ;
b1001000000000100000000000000001 E
b1000 2
b100 &
b100 3
b100 F
b100 H
b10000 Y
0B
1(
#240000
0(
#245000
b100 <
b1000100000000000000100 :
b1 "
b1 /
b1 X
b1001000001000100000000000000100 '
b1001000001000100000000000000100 ;
b1001000001000100000000000000100 E
b1100 5
b1100 G
1B
1@
b10001 Y
b1100 2
b1000 &
b1000 3
b1000 F
b1000 H
1(
#250000
0(
#255000
19
0!
b1 <
b1 :
b10 4
b10 C
b1000000000000000000000000001 '
b1000000000000000000000000001 ;
b1000000000000000000000000001 E
b100 5
b100 G
b1 "
b1 /
b1 X
b10000 2
b1100 &
b1100 3
b1100 F
b1100 H
b10010 Y
0@
1(
#260000
0(
#265000
b1000 5
b1000 G
1!
09
b100000000000000001 :
b10010 4
b10010 C
b1001000000000100000000000000001 '
b1001000000000100000000000000001 ;
b1001000000000100000000000000001 E
0B
b10011 Y
b1000 2
b100 &
b100 3
b100 F
b100 H
1(
#270000
0(
#275000
b100 <
b1000100000000000000100 :
b1001000001000100000000000000100 '
b1001000001000100000000000000100 ;
b1001000001000100000000000000100 E
b1100 5
b1100 G
b1 "
b1 /
b1 X
b1100 2
b1000 &
b1000 3
b1000 F
b1000 H
b10100 Y
1B
1@
1(
#280000
0(
#285000
19
0!
b1 <
b1 :
b10 4
b10 C
b1 "
b1 /
b1 X
b1000000000000000000000000001 '
b1000000000000000000000000001 ;
b1000000000000000000000000001 E
b100 5
b100 G
0@
b10101 Y
b10000 2
b1100 &
b1100 3
b1100 F
b1100 H
1(
#290000
0(
#295000
b1000 5
b1000 G
1!
09
b100000000000000001 :
b10010 4
b10010 C
b1001000000000100000000000000001 '
b1001000000000100000000000000001 ;
b1001000000000100000000000000001 E
b1000 2
b100 &
b100 3
b100 F
b100 H
b10110 Y
0B
1(
#300000
0(
#305000
b100 <
b1000100000000000000100 :
b1 "
b1 /
b1 X
b1001000001000100000000000000100 '
b1001000001000100000000000000100 ;
b1001000001000100000000000000100 E
b1100 5
b1100 G
1B
1@
b10111 Y
b1100 2
b1000 &
b1000 3
b1000 F
b1000 H
1(
#310000
0(
#315000
19
0!
b1 <
b1 :
b10 4
b10 C
b1000000000000000000000000001 '
b1000000000000000000000000001 ;
b1000000000000000000000000001 E
b100 5
b100 G
b1 "
b1 /
b1 X
b10000 2
b1100 &
b1100 3
b1100 F
b1100 H
b11000 Y
0@
1(
#320000
0(
#325000
b1000 5
b1000 G
1!
09
b100000000000000001 :
b10010 4
b10010 C
b1001000000000100000000000000001 '
b1001000000000100000000000000001 ;
b1001000000000100000000000000001 E
0B
b11001 Y
b1000 2
b100 &
b100 3
b100 F
b100 H
1(
#330000
0(
#335000
b100 <
b1000100000000000000100 :
b1001000001000100000000000000100 '
b1001000001000100000000000000100 ;
b1001000001000100000000000000100 E
b1100 5
b1100 G
b1 "
b1 /
b1 X
b1100 2
b1000 &
b1000 3
b1000 F
b1000 H
b11010 Y
1B
1@
1(
#340000
0(
#345000
19
0!
b1 <
b1 :
b10 4
b10 C
b1 "
b1 /
b1 X
b1000000000000000000000000001 '
b1000000000000000000000000001 ;
b1000000000000000000000000001 E
b100 5
b100 G
0@
b11011 Y
b10000 2
b1100 &
b1100 3
b1100 F
b1100 H
1(
#350000
0(
#355000
b1000 5
b1000 G
1!
09
b100000000000000001 :
b10010 4
b10010 C
b1001000000000100000000000000001 '
b1001000000000100000000000000001 ;
b1001000000000100000000000000001 E
b1000 2
b100 &
b100 3
b100 F
b100 H
b11100 Y
0B
1(
#360000
0(
#365000
b100 <
b1000100000000000000100 :
b1 "
b1 /
b1 X
b1001000001000100000000000000100 '
b1001000001000100000000000000100 ;
b1001000001000100000000000000100 E
b1100 5
b1100 G
1B
1@
b11101 Y
b1100 2
b1000 &
b1000 3
b1000 F
b1000 H
1(
#370000
0(
#375000
19
0!
b1 <
b1 :
b10 4
b10 C
b1000000000000000000000000001 '
b1000000000000000000000000001 ;
b1000000000000000000000000001 E
b100 5
b100 G
b1 "
b1 /
b1 X
b10000 2
b1100 &
b1100 3
b1100 F
b1100 H
b11110 Y
0@
1(
#380000
0(
#385000
b1000 5
b1000 G
1!
09
b100000000000000001 :
b10010 4
b10010 C
b1001000000000100000000000000001 '
b1001000000000100000000000000001 ;
b1001000000000100000000000000001 E
0B
b11111 Y
b1000 2
b100 &
b100 3
b100 F
b100 H
1(
#390000
0(
#395000
b100 <
b1000100000000000000100 :
b1001000001000100000000000000100 '
b1001000001000100000000000000100 ;
b1001000001000100000000000000100 E
b1100 5
b1100 G
b1 "
b1 /
b1 X
b1100 2
b1000 &
b1000 3
b1000 F
b1000 H
b100000 Y
1B
1@
1(
#400000
0(
#405000
19
0!
b1 <
b1 :
b10 4
b10 C
b1 "
b1 /
b1 X
b1000000000000000000000000001 '
b1000000000000000000000000001 ;
b1000000000000000000000000001 E
b100 5
b100 G
0@
b100001 Y
b10000 2
b1100 &
b1100 3
b1100 F
b1100 H
1(
#410000
0(
#415000
b1000 5
b1000 G
1!
09
b100000000000000001 :
b10010 4
b10010 C
b1001000000000100000000000000001 '
b1001000000000100000000000000001 ;
b1001000000000100000000000000001 E
b1000 2
b100 &
b100 3
b100 F
b100 H
b100010 Y
0B
1(
#420000
0(
#425000
b100 <
b1000100000000000000100 :
b1 "
b1 /
b1 X
b1001000001000100000000000000100 '
b1001000001000100000000000000100 ;
b1001000001000100000000000000100 E
b1100 5
b1100 G
1B
1@
b100011 Y
b1100 2
b1000 &
b1000 3
b1000 F
b1000 H
1(
#430000
0(
#435000
19
0!
b1 <
b1 :
b10 4
b10 C
b1000000000000000000000000001 '
b1000000000000000000000000001 ;
b1000000000000000000000000001 E
b100 5
b100 G
b1 "
b1 /
b1 X
b10000 2
b1100 &
b1100 3
b1100 F
b1100 H
b100100 Y
0@
1(
#440000
0(
#445000
b1000 5
b1000 G
1!
09
b100000000000000001 :
b10010 4
b10010 C
b1001000000000100000000000000001 '
b1001000000000100000000000000001 ;
b1001000000000100000000000000001 E
0B
b100101 Y
b1000 2
b100 &
b100 3
b100 F
b100 H
1(
#450000
0(
#455000
b100 <
b1000100000000000000100 :
b1001000001000100000000000000100 '
b1001000001000100000000000000100 ;
b1001000001000100000000000000100 E
b1100 5
b1100 G
b1 "
b1 /
b1 X
b1100 2
b1000 &
b1000 3
b1000 F
b1000 H
b100110 Y
1B
1@
1(
#460000
0(
#465000
19
0!
b1 <
b1 :
b10 4
b10 C
b1 "
b1 /
b1 X
b1000000000000000000000000001 '
b1000000000000000000000000001 ;
b1000000000000000000000000001 E
b100 5
b100 G
0@
b100111 Y
b10000 2
b1100 &
b1100 3
b1100 F
b1100 H
1(
#470000
0(
#475000
b1000 5
b1000 G
1!
09
b100000000000000001 :
b10010 4
b10010 C
b1001000000000100000000000000001 '
b1001000000000100000000000000001 ;
b1001000000000100000000000000001 E
b1000 2
b100 &
b100 3
b100 F
b100 H
b101000 Y
0B
1(
#480000
0(
#485000
b100 <
b1000100000000000000100 :
b1 "
b1 /
b1 X
b1001000001000100000000000000100 '
b1001000001000100000000000000100 ;
b1001000001000100000000000000100 E
b1100 5
b1100 G
1B
1@
b101001 Y
b1100 2
b1000 &
b1000 3
b1000 F
b1000 H
1(
#490000
0(
#495000
19
0!
b1 <
b1 :
b10 4
b10 C
b1000000000000000000000000001 '
b1000000000000000000000000001 ;
b1000000000000000000000000001 E
b100 5
b100 G
b1 "
b1 /
b1 X
b10000 2
b1100 &
b1100 3
b1100 F
b1100 H
b101010 Y
0@
1(
#500000
0(
#505000
b1000 5
b1000 G
1!
09
b100000000000000001 :
b10010 4
b10010 C
b1001000000000100000000000000001 '
b1001000000000100000000000000001 ;
b1001000000000100000000000000001 E
0B
b101011 Y
b1000 2
b100 &
b100 3
b100 F
b100 H
1(
#510000
0(
#515000
b100 <
b1000100000000000000100 :
b1001000001000100000000000000100 '
b1001000001000100000000000000100 ;
b1001000001000100000000000000100 E
b1100 5
b1100 G
b1 "
b1 /
b1 X
b1100 2
b1000 &
b1000 3
b1000 F
b1000 H
b101100 Y
1B
1@
1(
#520000
0(
#525000
19
0!
b1 <
b1 :
b10 4
b10 C
b1 "
b1 /
b1 X
b1000000000000000000000000001 '
b1000000000000000000000000001 ;
b1000000000000000000000000001 E
b100 5
b100 G
0@
b101101 Y
b10000 2
b1100 &
b1100 3
b1100 F
b1100 H
1(
#530000
0(
#535000
b1000 5
b1000 G
1!
09
b100000000000000001 :
b10010 4
b10010 C
b1001000000000100000000000000001 '
b1001000000000100000000000000001 ;
b1001000000000100000000000000001 E
b1000 2
b100 &
b100 3
b100 F
b100 H
b101110 Y
0B
1(
#540000
0(
#545000
b100 <
b1000100000000000000100 :
b1 "
b1 /
b1 X
b1001000001000100000000000000100 '
b1001000001000100000000000000100 ;
b1001000001000100000000000000100 E
b1100 5
b1100 G
1B
1@
b101111 Y
b1100 2
b1000 &
b1000 3
b1000 F
b1000 H
1(
#550000
0(
#555000
19
0!
b1 <
b1 :
b10 4
b10 C
b1000000000000000000000000001 '
b1000000000000000000000000001 ;
b1000000000000000000000000001 E
b100 5
b100 G
b1 "
b1 /
b1 X
b10000 2
b1100 &
b1100 3
b1100 F
b1100 H
b110000 Y
0@
1(
#560000
0(
#565000
b1000 5
b1000 G
1!
09
b100000000000000001 :
b10010 4
b10010 C
b1001000000000100000000000000001 '
b1001000000000100000000000000001 ;
b1001000000000100000000000000001 E
0B
b110001 Y
b1000 2
b100 &
b100 3
b100 F
b100 H
1(
#570000
0(
#575000
b100 <
b1000100000000000000100 :
b1001000001000100000000000000100 '
b1001000001000100000000000000100 ;
b1001000001000100000000000000100 E
b1100 5
b1100 G
b1 "
b1 /
b1 X
b1100 2
b1000 &
b1000 3
b1000 F
b1000 H
b110010 Y
1B
1@
1(
#580000
0(
#585000
19
0!
b1 <
b1 :
b10 4
b10 C
b1 "
b1 /
b1 X
b1000000000000000000000000001 '
b1000000000000000000000000001 ;
b1000000000000000000000000001 E
b100 5
b100 G
0@
b110011 Y
b10000 2
b1100 &
b1100 3
b1100 F
b1100 H
1(
#590000
0(
#595000
b1000 5
b1000 G
1!
09
b100000000000000001 :
b10010 4
b10010 C
b1001000000000100000000000000001 '
b1001000000000100000000000000001 ;
b1001000000000100000000000000001 E
b1000 2
b100 &
b100 3
b100 F
b100 H
b110100 Y
0B
1(
#600000
0(
#605000
b100 <
b1000100000000000000100 :
b1 "
b1 /
b1 X
b1001000001000100000000000000100 '
b1001000001000100000000000000100 ;
b1001000001000100000000000000100 E
b1100 5
b1100 G
1B
1@
b110101 Y
b1100 2
b1000 &
b1000 3
b1000 F
b1000 H
1(
#610000
0(
#615000
19
0!
b1 <
b1 :
b10 4
b10 C
b1000000000000000000000000001 '
b1000000000000000000000000001 ;
b1000000000000000000000000001 E
b100 5
b100 G
b1 "
b1 /
b1 X
b10000 2
b1100 &
b1100 3
b1100 F
b1100 H
b110110 Y
0@
1(
#620000
0(
#625000
b1000 5
b1000 G
1!
09
b100000000000000001 :
b10010 4
b10010 C
b1001000000000100000000000000001 '
b1001000000000100000000000000001 ;
b1001000000000100000000000000001 E
0B
b110111 Y
b1000 2
b100 &
b100 3
b100 F
b100 H
1(
#630000
0(
#635000
b100 <
b1000100000000000000100 :
b1001000001000100000000000000100 '
b1001000001000100000000000000100 ;
b1001000001000100000000000000100 E
b1100 5
b1100 G
b1 "
b1 /
b1 X
b1100 2
b1000 &
b1000 3
b1000 F
b1000 H
b111000 Y
1B
1@
1(
#640000
0(
#645000
19
0!
b1 <
b1 :
b10 4
b10 C
b1 "
b1 /
b1 X
b1000000000000000000000000001 '
b1000000000000000000000000001 ;
b1000000000000000000000000001 E
b100 5
b100 G
0@
b111001 Y
b10000 2
b1100 &
b1100 3
b1100 F
b1100 H
1(
#650000
0(
#655000
b1000 5
b1000 G
1!
09
b100000000000000001 :
b10010 4
b10010 C
b1001000000000100000000000000001 '
b1001000000000100000000000000001 ;
b1001000000000100000000000000001 E
b1000 2
b100 &
b100 3
b100 F
b100 H
b111010 Y
0B
1(
#660000
0(
#665000
b100 <
b1000100000000000000100 :
b1 "
b1 /
b1 X
b1001000001000100000000000000100 '
b1001000001000100000000000000100 ;
b1001000001000100000000000000100 E
b1100 5
b1100 G
1B
1@
b111011 Y
b1100 2
b1000 &
b1000 3
b1000 F
b1000 H
1(
#670000
0(
#675000
19
0!
b1 <
b1 :
b10 4
b10 C
b1000000000000000000000000001 '
b1000000000000000000000000001 ;
b1000000000000000000000000001 E
b100 5
b100 G
b1 "
b1 /
b1 X
b10000 2
b1100 &
b1100 3
b1100 F
b1100 H
b111100 Y
0@
1(
#680000
0(
#685000
b1000 5
b1000 G
1!
09
b100000000000000001 :
b10010 4
b10010 C
b1001000000000100000000000000001 '
b1001000000000100000000000000001 ;
b1001000000000100000000000000001 E
0B
b111101 Y
b1000 2
b100 &
b100 3
b100 F
b100 H
1(
#690000
0(
#695000
b100 <
b1000100000000000000100 :
b1001000001000100000000000000100 '
b1001000001000100000000000000100 ;
b1001000001000100000000000000100 E
b1100 5
b1100 G
b1 "
b1 /
b1 X
b1100 2
b1000 &
b1000 3
b1000 F
b1000 H
b111110 Y
1B
1@
1(
#700000
0(
#705000
19
0!
b1 <
b1 :
b10 4
b10 C
b1 "
b1 /
b1 X
b1000000000000000000000000001 '
b1000000000000000000000000001 ;
b1000000000000000000000000001 E
b100 5
b100 G
0@
b111111 Y
b10000 2
b1100 &
b1100 3
b1100 F
b1100 H
1(
#710000
0(
#715000
b1000 5
b1000 G
1!
09
b100000000000000001 :
b10010 4
b10010 C
b1001000000000100000000000000001 '
b1001000000000100000000000000001 ;
b1001000000000100000000000000001 E
b1000 2
b100 &
b100 3
b100 F
b100 H
b1000000 Y
0B
1(
#720000
0(
#725000
b100 <
b1000100000000000000100 :
b1 "
b1 /
b1 X
b1001000001000100000000000000100 '
b1001000001000100000000000000100 ;
b1001000001000100000000000000100 E
b1100 5
b1100 G
1B
1@
b1000001 Y
b1100 2
b1000 &
b1000 3
b1000 F
b1000 H
1(
#730000
0(
#735000
19
0!
b1 <
b1 :
b10 4
b10 C
b1000000000000000000000000001 '
b1000000000000000000000000001 ;
b1000000000000000000000000001 E
b100 5
b100 G
b1 "
b1 /
b1 X
b10000 2
b1100 &
b1100 3
b1100 F
b1100 H
b1000010 Y
0@
1(
#740000
0(
#745000
b1000 5
b1000 G
1!
09
b100000000000000001 :
b10010 4
b10010 C
b1001000000000100000000000000001 '
b1001000000000100000000000000001 ;
b1001000000000100000000000000001 E
0B
b1000011 Y
b1000 2
b100 &
b100 3
b100 F
b100 H
1(
#750000
0(
#755000
b100 <
b1000100000000000000100 :
b1001000001000100000000000000100 '
b1001000001000100000000000000100 ;
b1001000001000100000000000000100 E
b1100 5
b1100 G
b1 "
b1 /
b1 X
b1100 2
b1000 &
b1000 3
b1000 F
b1000 H
b1000100 Y
1B
1@
1(
#760000
0(
#765000
19
0!
b1 <
b1 :
b10 4
b10 C
b1 "
b1 /
b1 X
b1000000000000000000000000001 '
b1000000000000000000000000001 ;
b1000000000000000000000000001 E
b100 5
b100 G
0@
b1000101 Y
b10000 2
b1100 &
b1100 3
b1100 F
b1100 H
1(
#770000
0(
#775000
b1000 5
b1000 G
1!
09
b100000000000000001 :
b10010 4
b10010 C
b1001000000000100000000000000001 '
b1001000000000100000000000000001 ;
b1001000000000100000000000000001 E
b1000 2
b100 &
b100 3
b100 F
b100 H
b1000110 Y
0B
1(
#780000
0(
#785000
b100 <
b1000100000000000000100 :
b1 "
b1 /
b1 X
b1001000001000100000000000000100 '
b1001000001000100000000000000100 ;
b1001000001000100000000000000100 E
b1100 5
b1100 G
1B
1@
b1000111 Y
b1100 2
b1000 &
b1000 3
b1000 F
b1000 H
1(
#790000
0(
#795000
19
0!
b1 <
b1 :
b10 4
b10 C
b1000000000000000000000000001 '
b1000000000000000000000000001 ;
b1000000000000000000000000001 E
b100 5
b100 G
b1 "
b1 /
b1 X
b10000 2
b1100 &
b1100 3
b1100 F
b1100 H
b1001000 Y
0@
1(
#800000
0(
#805000
b1000 5
b1000 G
1!
09
b100000000000000001 :
b10010 4
b10010 C
b1001000000000100000000000000001 '
b1001000000000100000000000000001 ;
b1001000000000100000000000000001 E
0B
b1001001 Y
b1000 2
b100 &
b100 3
b100 F
b100 H
1(
#810000
0(
#815000
b100 <
b1000100000000000000100 :
b1001000001000100000000000000100 '
b1001000001000100000000000000100 ;
b1001000001000100000000000000100 E
b1100 5
b1100 G
b1 "
b1 /
b1 X
b1100 2
b1000 &
b1000 3
b1000 F
b1000 H
b1001010 Y
1B
1@
1(
#820000
0(
#825000
19
0!
b1 <
b1 :
b10 4
b10 C
b1 "
b1 /
b1 X
b1000000000000000000000000001 '
b1000000000000000000000000001 ;
b1000000000000000000000000001 E
b100 5
b100 G
0@
b1001011 Y
b10000 2
b1100 &
b1100 3
b1100 F
b1100 H
1(
#830000
0(
#835000
b1000 5
b1000 G
1!
09
b100000000000000001 :
b10010 4
b10010 C
b1001000000000100000000000000001 '
b1001000000000100000000000000001 ;
b1001000000000100000000000000001 E
b1000 2
b100 &
b100 3
b100 F
b100 H
b1001100 Y
0B
1(
#840000
0(
#845000
b100 <
b1000100000000000000100 :
b1 "
b1 /
b1 X
b1001000001000100000000000000100 '
b1001000001000100000000000000100 ;
b1001000001000100000000000000100 E
b1100 5
b1100 G
1B
1@
b1001101 Y
b1100 2
b1000 &
b1000 3
b1000 F
b1000 H
1(
#850000
0(
