mips/mips_qpu.vcd
$date
	Tue Jan 06 23:38:40 2026
$end
$version
	Icarus Verilog
$end
$timescale
	1ps
$end
$scope module tb_mips_qpu_top $end
$var wire 1 ! quantum_en $end
$var wire 2 " q_status [1:0] $end
$var wire 1 # q_busy $end
$var wire 32 $ q_beta [31:0] $end
$var wire 32 % q_alpha [31:0] $end
$var wire 32 & pc [31:0] $end
$var wire 32 ' instr [31:0] $end
$var reg 1 ( clk $end
$var reg 1 ) reset $end
$var real 1 * alpha_real $end
$var real 1 + beta_real $end
$scope function fp_to_real $end
$var reg 32 , fp_val [31:0] $end
$upscope $end
$scope module dut $end
$var wire 1 ( clk $end
$var wire 1 ) reset $end
$var wire 1 - reg_write $end
$var wire 1 . reg_dst $end
$var wire 1 ! quantum_en $end
$var wire 2 / q_status [1:0] $end
$var wire 1 # q_busy $end
$var wire 32 0 q_beta [31:0] $end
$var wire 32 1 q_alpha [31:0] $end
$var wire 32 2 pc_plus_4 [31:0] $end
$var wire 32 3 pc [31:0] $end
$var wire 6 4 opcode [5:0] $end
$var wire 32 5 next_pc [31:0] $end
$var wire 1 6 mem_write $end
$var wire 1 7 mem_to_reg $end
$var wire 1 8 mem_read $end
$var wire 1 9 jump $end
$var wire 26 : j_addr [25:0] $end
$var wire 32 ; instr [31:0] $end
$var wire 6 < funct [5:0] $end
$var wire 1 = branch $end
$var wire 1 > alu_src $end
$var wire 2 ? alu_op [1:0] $end
$var reg 1 @ cmd_execute $end
$var reg 3 A cmd_gate [2:0] $end
$var reg 1 B prev_quantum_en $end
$scope module decoder $end
$var wire 6 C opcode [5:0] $end
$var reg 2 D alu_op [1:0] $end
$var reg 1 > alu_src $end
$var reg 1 = branch $end
$var reg 1 9 jump $end
$var reg 1 8 mem_read $end
$var reg 1 7 mem_to_reg $end
$var reg 1 6 mem_write $end
$var reg 1 ! quantum_en $end
$var reg 1 . reg_dst $end
$var reg 1 - reg_write $end
$upscope $end
$scope module imem $end
$var wire 32 E instr [31:0] $end
$var wire 32 F pc [31:0] $end
$upscope $end
$scope module pc_reg $end
$var wire 1 ( clk $end
$var wire 32 G next_pc [31:0] $end
$var wire 1 ) rst $end
$var reg 32 H pc [31:0] $end
$upscope $end
$scope module qctrl $end
$var wire 1 ( clk $end
$var wire 1 @ cmd_execute $end
$var wire 3 I cmd_gate [2:0] $end
$var wire 1 ) reset $end
$var wire 32 J state_prob_0 [31:0] $end
$var wire 32 K state_beta_out [31:0] $end
$var wire 32 L state_alpha_out [31:0] $end
$var wire 32 M rng_value [31:0] $end
$var wire 32 N next_beta_in [31:0] $end
$var wire 32 O next_alpha_in [31:0] $end
$var wire 1 P meas_done_sig $end
$var wire 1 Q meas_bit $end
$var wire 32 R meas_beta_out [31:0] $end
$var wire 32 S meas_alpha_out [31:0] $end
$var wire 1 # gate_busy $end
$var wire 32 T gate_beta_out [31:0] $end
$var wire 32 U gate_alpha_out [31:0] $end
$var parameter 3 V CMD_MEASURE $end
$var parameter 32 W GATE_DELAY $end
$var parameter 2 X ST_EXECUTE $end
$var parameter 2 Y ST_IDLE $end
$var parameter 2 Z ST_MEASURE $end
$var parameter 2 [ ST_UPDATE $end
$var reg 3 \ current_gate [2:0] $end
$var reg 2 ] current_state [1:0] $end
$var reg 32 ^ display_alpha [31:0] $end
$var reg 32 _ display_beta [31:0] $end
$var reg 1 ` meas_trigger $end
$var reg 1 a measure_result $end
$var reg 2 b next_state [1:0] $end
$var reg 1 c reg_update_en $end
$var reg 2 d status [1:0] $end
$var reg 32 e timer_counter [31:0] $end
$var reg 1 f timer_done $end
$scope module gate_unit $end
$var wire 3 g gate_type [2:0] $end
$var wire 1 h ov_h_beta $end
$var wire 1 i ov_h_alpha $end
$var wire 32 j hadamard_sum [31:0] $end
$var wire 32 k hadamard_diff [31:0] $end
$var wire 32 l beta_in [31:0] $end
$var wire 32 m beta_h_core [31:0] $end
$var wire 32 n alpha_in [31:0] $end
$var wire 32 o alpha_h_core [31:0] $end
$var parameter 32 p FIXED_ONE $end
$var parameter 32 q FIXED_ZERO $end
$var parameter 3 r GATE_H $end
$var parameter 3 s GATE_IDLE $end
$var parameter 3 t GATE_X $end
$var parameter 3 u GATE_Y $end
$var parameter 3 v GATE_Z $end
$var parameter 32 w INV_SQRT2 $end
$var reg 32 x alpha_out [31:0] $end
$var reg 32 y beta_out [31:0] $end
$scope module u_hadamard_alpha $end
$var wire 32 z a [31:0] $end
$var wire 32 { b [31:0] $end
$var wire 1 i overflow $end
$var wire 64 | temp_product [63:0] $end
$var wire 32 } product [31:0] $end
$upscope $end
$scope module u_hadamard_beta $end
$var wire 32 ~ a [31:0] $end
$var wire 32 !" b [31:0] $end
$var wire 1 h overflow $end
$var wire 64 "" temp_product [63:0] $end
$var wire 32 #" product [31:0] $end
$upscope $end
$upscope $end
$scope module meas_unit $end
$var wire 1 ( clk $end
$var wire 1 ` measure_en $end
$var wire 1 ) reset $end
$var wire 32 $" random_val [31:0] $end
$var wire 32 %" prob_0 [31:0] $end
$var parameter 32 &" ONE $end
$var parameter 32 '" ZERO $end
$var reg 1 P done $end
$var reg 1 Q measured_bit $end
$var reg 32 (" new_alpha [31:0] $end
$var reg 32 )" new_beta [31:0] $end
$upscope $end
$scope module rng_inst $end
$var wire 1 ( clk $end
$var wire 1 *" feedback $end
$var wire 1 ) reset $end
$var wire 32 +" random_out [31:0] $end
$var reg 32 ," lfsr_reg [31:0] $end
$upscope $end
$scope module state_reg $end
$var wire 32 -" alpha_in [31:0] $end
$var wire 32 ." beta_in [31:0] $end
$var wire 1 ( clk $end
$var wire 1 ) reset $end
$var wire 1 c update_en $end
$var wire 32 /" total_prob [31:0] $end
$var wire 32 0" prob_1 [31:0] $end
$var wire 32 1" prob_0 [31:0] $end
$var parameter 32 2" FIXED_ONE $end
$var parameter 32 3" FIXED_ZERO $end
$var reg 32 4" alpha_out [31:0] $end
$var reg 32 5" beta_out [31:0] $end
$scope function fp_square $end
$var reg 32 6" a [31:0] $end
$var reg 64 7" temp [63:0] $end
$upscope $end
$upscope $end
$upscope $end
$upscope $end
$upscope $end
$enddefinitions $end
$comment Show the parameter values. $end
$dumpall
b0 3"
b10000000000000000 2"
b0 '"
b10000000000000000 &"
b1011010100000100 w
b11 v
b100 u
b10 t
b0 s
b1 r
b0 q
b10000000000000000 p
b10 [
b11 Z
b0 Y
b1 X
b1111101000 W
b101 V
$end
#0
$dumpvars
b0 7"
b0 6"
b0 5"
b10000000000000000 4"
b10000000000000000 1"
b0 0"
b10000000000000000 /"
b0 ."
b10000000000000000 -"
b11011110101011011011111011101111 ,"
b1011111011101111 +"
0*"
b0 )"
b10000000000000000 ("
b10000000000000000 %"
b1011111011101111 $"
b1011010100000100 #"
b10110101000001000000000000000000 ""
b1011010100000100 !"
b10000000000000000 ~
b1011010100000100 }
b10110101000001000000000000000000 |
b1011010100000100 {
b10000000000000000 z
b0 y
b10000000000000000 x
b1011010100000100 o
b10000000000000000 n
b1011010100000100 m
b0 l
b10000000000000000 k
b10000000000000000 j
0i
0h
bx g
0f
b0 e
b0 d
0c
b0 b
0a
0`
bx _
bx ^
b0 ]
bx \
b10000000000000000 U
b0 T
b10000000000000000 S
b0 R
0Q
0P
b10000000000000000 O
b0 N
b1011111011101111 M
b10000000000000000 L
b0 K
b10000000000000000 J
b0 I
b0 H
b100 G
b0 F
b100000000010000000000000000101 E
b0 D
b1000 C
0B
b0 A
0@
b0 ?
1>
0=
b101 <
b100000000010000000000000000101 ;
b10000000000000000101 :
09
08
07
06
b100 5
b1000 4
b0 3
b100 2
bx 1
bx 0
b0 /
0.
1-
bx ,
r0 +
r0 *
1)
0(
b100000000010000000000000000101 '
b0 &
bx %
bx $
0#
b0 "
0!
$end
#5000
r1 *
b0 ,
b0 $
b0 0
b0 _
b10000000000000000 %
b10000000000000000 1
b10000000000000000 ^
1(
#10000
0(
#15000
1(
#20000
0(
#25000
1(
#30000
0(
#35000
1(
#40000
0(
#45000
1(
#50000
0(
0)
#55000
1!
0-
0>
b1 <
b100000000000000001 :
b10010 4
b10010 C
0*"
b1001000000000100000000000000001 '
b1001000000000100000000000000001 ;
b1001000000000100000000000000001 E
b1000 5
b1000 G
b111110111011110 M
b111110111011110 $"
b111110111011110 +"
b1000 2
b100 &
b100 3
b100 F
b100 H
b10111101010110110111110111011110 ,"
1(
#60000
0(
#65000
1*"
b1011010100000100 O
b1011010100000100 -"
b1011010100000100 N
b1011010100000100 ."
b1011010100000100 T
b1011010100000100 y
b1011010100000100 U
b1011010100000100 x
b100 <
b1000100000000000000100 :
b1 b
b1 \
b1 g
b1111101110111100 M
b1111101110111100 $"
b1111101110111100 +"
b1001000001000100000000000000100 '
b1001000001000100000000000000100 ;
b1001000001000100000000000000100 E
b1100 5
b1100 G
1B
b1 A
b1 I
1@
b1111010101101101111101110111100 ,"
b1100 2
b1000 &
b1000 3
b1000 F
b1000 H
1(
#70000
0(
#75000
19
0!
b1 <
b1 :
b10 4
b10 C
1*"
b1000000000000000000000000001 '
b1000000000000000000000000001 ;
b1000000000000000000000000001 E
b100 5
b100 G
b1111011101111001 M
b1111011101111001 $"
b1111011101111001 +"
b1 "
b1 /
b1 d
b10000 2
b1100 &
b1100 3
b1100 F
b1100 H
b11110101011011011111011101111001 ,"
1#
b1 ]
0@
1(
#80000
0(
#85000
1*"
b1000 5
b1000 G
1!
09
b100000000000000001 :
b10010 4
b10010 C
b1110111011110011 M
b1110111011110011 $"
b1110111011110011 +"
b1001000000000100000000000000001 '
b1001000000000100000000000000001 ;
b1001000000000100000000000000001 E
0B
b1 e
b11101010110110111110111011110011 ,"
b1000 2
b100 &
b100 3
b100 F
b100 H
1(
#90000
0(
#95000
0*"
b100 <
b1000100000000000000100 :
b1001000001000100000000000000100 '
b1001000001000100000000000000100 ;
b1001000001000100000000000000100 E
b1100 5
b1100 G
b1101110111100111 M
b1101110111100111 $"
b1101110111100111 +"
b1 "
b1 /
b1 d
b1100 2
b1000 &
b1000 3
b1000 F
b1000 H
b11010101101101111101110111100111 ,"
b10 e
1B
1@
1(
#100000
0(
#105000
19
0!
1*"
b1 <
b1 :
b10 4
b10 C
b1 "
b1 /
b1 d
b1011101111001110 M
b1011101111001110 $"
b1011101111001110 +"
b1000000000000000000000000001 '
b1000000000000000000000000001 ;
b1000000000000000000000000001 E
b100 5
b100 G
0@
b11 e
b10101011011011111011101111001110 ,"
b10000 2
b1100 &
b1100 3
b1100 F
b1100 H
1(
#110000
0(
#115000
b1000 5
b1000 G
1!
09
b100000000000000001 :
b10010 4
b10010 C
1*"
b1001000000000100000000000000001 '
b1001000000000100000000000000001 ;
b1001000000000100000000000000001 E
b111011110011101 M
b111011110011101 $"
b111011110011101 +"
b1000 2
b100 &
b100 3
b100 F
b100 H
b1010110110111110111011110011101 ,"
b100 e
0B
1(
#120000
0(
#125000
0*"
b100 <
b1000100000000000000100 :
b1 "
b1 /
b1 d
b1110111100111011 M
b1110111100111011 $"
b1110111100111011 +"
b1001000001000100000000000000100 '
b1001000001000100000000000000100 ;
b1001000001000100000000000000100 E
b1100 5
b1100 G
1B
1@
b101 e
b10101101101111101110111100111011 ,"
b1100 2
b1000 &
b1000 3
b1000 F
b1000 H
1(
#130000
0(
#135000
19
0!
b1 <
b1 :
b10 4
b10 C
0*"
b1000000000000000000000000001 '
b1000000000000000000000000001 ;
b1000000000000000000000000001 E
b100 5
b100 G
b1101111001110110 M
b1101111001110110 $"
b1101111001110110 +"
b1 "
b1 /
b1 d
b10000 2
b1100 &
b1100 3
b1100 F
b1100 H
b1011011011111011101111001110110 ,"
b110 e
0@
1(
#140000
0(
#145000
0*"
b1000 5
b1000 G
1!
09
b100000000000000001 :
b10010 4
b10010 C
b1011110011101100 M
b1011110011101100 $"
b1011110011101100 +"
b1001000000000100000000000000001 '
b1001000000000100000000000000001 ;
b1001000000000100000000000000001 E
0B
b111 e
b10110110111110111011110011101100 ,"
b1000 2
b100 &
b100 3
b100 F
b100 H
1(
#150000
0(
#155000
1*"
b100 <
b1000100000000000000100 :
b1001000001000100000000000000100 '
b1001000001000100000000000000100 ;
b1001000001000100000000000000100 E
b1100 5
b1100 G
b111100111011000 M
b111100111011000 $"
b111100111011000 +"
b1 "
b1 /
b1 d
b1100 2
b1000 &
b1000 3
b1000 F
b1000 H
b1101101111101110111100111011000 ,"
b1000 e
1B
1@
1(
#160000
0(
#165000
19
0!
1*"
b1 <
b1 :
b10 4
b10 C
b1 "
b1 /
b1 d
b1111001110110001 M
b1111001110110001 $"
b1111001110110001 +"
b1000000000000000000000000001 '
b1000000000000000000000000001 ;
b1000000000000000000000000001 E
b100 5
b100 G
0@
b1001 e
b11011011111011101111001110110001 ,"
b10000 2
b1100 &
b1100 3
b1100 F
b1100 H
1(
#170000
0(
#175000
b1000 5
b1000 G
1!
09
1*"
b100000000000000001 :
b10010 4
b10010 C
b1001000000000100000000000000001 '
b1001000000000100000000000000001 ;
b1001000000000100000000000000001 E
b1110011101100011 M
b1110011101100011 $"
b1110011101100011 +"
b1000 2
b100 &
b100 3
b100 F
b100 H
b10110111110111011110011101100011 ,"
b1010 e
0B
1(
#180000
0(
#185000
b100 <
b1000100000000000000100 :
b1 "
b1 /
b1 d
b1100111011000111 M
b1100111011000111 $"
b1100111011000111 +"
b1001000001000100000000000000100 '
b1001000001000100000000000000100 ;
b1001000001000100000000000000100 E
b1100 5
b1100 G
1B
1@
b1011 e
b1101111101110111100111011000111 ,"
b1100 2
b1000 &
b1000 3
b1000 F
b1000 H
1(
#190000
0(
#195000
0*"
19
0!
b1 <
b1 :
b10 4
b10 C
b1000000000000000000000000001 '
b1000000000000000000000000001 ;
b1000000000000000000000000001 E
b100 5
b100 G
b1001110110001111 M
b1001110110001111 $"
b1001110110001111 +"
b1 "
b1 /
b1 d
b10000 2
b1100 &
b1100 3
b1100 F
b1100 H
b11011111011101111001110110001111 ,"
b1100 e
0@
1(
#200000
0(
#205000
b1000 5
b1000 G
1!
09
1*"
b100000000000000001 :
b10010 4
b10010 C
b11101100011110 M
b11101100011110 $"
b11101100011110 +"
b1001000000000100000000000000001 '
b1001000000000100000000000000001 ;
b1001000000000100000000000000001 E
0B
b1101 e
b10111110111011110011101100011110 ,"
b1000 2
b100 &
b100 3
b100 F
b100 H
1(
#210000
0(
#215000
b100 <
b1000100000000000000100 :
1*"
b1001000001000100000000000000100 '
b1001000001000100000000000000100 ;
b1001000001000100000000000000100 E
b1100 5
b1100 G
b111011000111101 M
b111011000111101 $"
b111011000111101 +"
b1 "
b1 /
b1 d
b1100 2
b1000 &
b1000 3
b1000 F
b1000 H
b1111101110111100111011000111101 ,"
b1110 e
1B
1@
1(
#220000
0(
#225000
0*"
19
0!
b1 <
b1 :
b10 4
b10 C
b1 "
b1 /
b1 d
b1110110001111011 M
b1110110001111011 $"
b1110110001111011 +"
b1000000000000000000000000001 '
b1000000000000000000000000001 ;
b1000000000000000000000000001 E
b100 5
b100 G
0@
b1111 e
b11111011101111001110110001111011 ,"
b10000 2
b1100 &
b1100 3
b1100 F
b1100 H
1(
#230000
0(
#235000
b1000 5
b1000 G
1!
09
b100000000000000001 :
b10010 4
b10010 C
1*"
b1001000000000100000000000000001 '
b1001000000000100000000000000001 ;
b1001000000000100000000000000001 E
b1101100011110110 M
b1101100011110110 $"
b1101100011110110 +"
b1000 2
b100 &
b100 3
b100 F
b100 H
b11110111011110011101100011110110 ,"
b10000 e
0B
1(
#240000
0(
#245000
1*"
b100 <
b1000100000000000000100 :
b1 "
b1 /
b1 d
b1011000111101101 M
b1011000111101101 $"
b1011000111101101 +"
b1001000001000100000000000000100 '
b1001000001000100000000000000100 ;
b1001000001000100000000000000100 E
b1100 5
b1100 G
1B
1@
b10001 e
b11101110111100111011000111101101 ,"
b1100 2
b1000 &
b1000 3
b1000 F
b1000 H
1(
#250000
0(
#255000
19
0!
0*"
b1 <
b1 :
b10 4
b10 C
b1000000000000000000000000001 '
b1000000000000000000000000001 ;
b1000000000000000000000000001 E
b100 5
b100 G
b110001111011011 M
b110001111011011 $"
b110001111011011 +"
b1 "
b1 /
b1 d
b10000 2
b1100 &
b1100 3
b1100 F
b1100 H
b11011101111001110110001111011011 ,"
b10010 e
0@
1(
#260000
0(
#265000
b1000 5
b1000 G
1!
09
0*"
b100000000000000001 :
b10010 4
b10010 C
b1100011110110110 M
b1100011110110110 $"
b1100011110110110 +"
b1001000000000100000000000000001 '
b1001000000000100000000000000001 ;
b1001000000000100000000000000001 E
0B
b10011 e
b10111011110011101100011110110110 ,"
b1000 2
b100 &
b100 3
b100 F
b100 H
1(
#270000
0(
#275000
0*"
b100 <
b1000100000000000000100 :
b1001000001000100000000000000100 '
b1001000001000100000000000000100 ;
b1001000001000100000000000000100 E
b1100 5
b1100 G
b1000111101101100 M
b1000111101101100 $"
b1000111101101100 +"
b1 "
b1 /
b1 d
b1100 2
b1000 &
b1000 3
b1000 F
b1000 H
b1110111100111011000111101101100 ,"
b10100 e
1B
1@
1(
#280000
0(
#285000
19
0!
b1 <
b1 :
b10 4
b10 C
b1 "
b1 /
b1 d
b1111011011000 M
b1111011011000 $"
b1111011011000 +"
b1000000000000000000000000001 '
b1000000000000000000000000001 ;
b1000000000000000000000000001 E
b100 5
b100 G
0@
b10101 e
b11101111001110110001111011011000 ,"
b10000 2
b1100 &
b1100 3
b1100 F
b1100 H
1(
#290000
0(
#295000
b1000 5
b1000 G
1!
09
b100000000000000001 :
b10010 4
b10010 C
b1001000000000100000000000000001 '
b1001000000000100000000000000001 ;
b1001000000000100000000000000001 E
b11110110110000 M
b11110110110000 $"
b11110110110000 +"
b1000 2
b100 &
b100 3
b100 F
b100 H
b11011110011101100011110110110000 ,"
b10110 e
0B
1(
#300000
0(
#305000
b100 <
b1000100000000000000100 :
b1 "
b1 /
b1 d
b111101101100000 M
b111101101100000 $"
b111101101100000 +"
b1001000001000100000000000000100 '
b1001000001000100000000000000100 ;
b1001000001000100000000000000100 E
b1100 5
b1100 G
1B
1@
b10111 e
b10111100111011000111101101100000 ,"
b1100 2
b1000 &
b1000 3
b1000 F
b1000 H
1(
#310000
0(
#315000
19
0!
b1 <
b1 :
b10 4
b10 C
b1000000000000000000000000001 '
b1000000000000000000000000001 ;
b1000000000000000000000000001 E
b100 5
b100 G
b1111011011000000 M
b1111011011000000 $"
b1111011011000000 +"
b1 "
b1 /
b1 d
b10000 2
b1100 &
b1100 3
b1100 F
b1100 H
b1111001110110001111011011000000 ,"
b11000 e
0@
1(
#320000
0(
#325000
b1000 5
b1000 G
1!
09
b100000000000000001 :
b10010 4
b10010 C
b1110110110000000 M
b1110110110000000 $"
b1110110110000000 +"
b1001000000000100000000000000001 '
b1001000000000100000000000000001 ;
b1001000000000100000000000000001 E
0B
b11001 e
b11110011101100011110110110000000 ,"
b1000 2
b100 &
b100 3
b100 F
b100 H
1(
#330000
0(
#335000
b100 <
b1000100000000000000100 :
b1001000001000100000000000000100 '
b1001000001000100000000000000100 ;
b1001000001000100000000000000100 E
b1100 5
b1100 G
b1101101100000000 M
b1101101100000000 $"
b1101101100000000 +"
b1 "
b1 /
b1 d
b1100 2
b1000 &
b1000 3
b1000 F
b1000 H
b11100111011000111101101100000000 ,"
b11010 e
1B
1@
1(
#340000
0(
#345000
1*"
19
0!
b1 <
b1 :
b10 4
b10 C
b1 "
b1 /
b1 d
b1011011000000000 M
b1011011000000000 $"
b1011011000000000 +"
b1000000000000000000000000001 '
b1000000000000000000000000001 ;
b1000000000000000000000000001 E
b100 5
b100 G
0@
b11011 e
b11001110110001111011011000000000 ,"
b10000 2
b1100 &
b1100 3
b1100 F
b1100 H
1(
#350000
0(
#355000
b1000 5
b1000 G
1!
09
b100000000000000001 :
b10010 4
b10010 C
0*"
b1001000000000100000000000000001 '
b1001000000000100000000000000001 ;
b1001000000000100000000000000001 E
b110110000000001 M
b110110000000001 $"
b110110000000001 +"
b1000 2
b100 &
b100 3
b100 F
b100 H
b10011101100011110110110000000001 ,"
b11100 e
0B
1(
#360000
0(
#365000
1*"
b100 <
b1000100000000000000100 :
b1 "
b1 /
b1 d
b1101100000000010 M
b1101100000000010 $"
b1101100000000010 +"
b1001000001000100000000000000100 '
b1001000001000100000000000000100 ;
b1001000001000100000000000000100 E
b1100 5
b1100 G
1B
1@
b11101 e
b111011000111101101100000000010 ,"
b1100 2
b1000 &
b1000 3
b1000 F
b1000 H
1(
#370000
0(
#375000
19
0!
b1 <
b1 :
b10 4
b10 C
0*"
b1000000000000000000000000001 '
b1000000000000000000000000001 ;
b1000000000000000000000000001 E
b100 5
b100 G
b1011000000000101 M
b1011000000000101 $"
b1011000000000101 +"
b1 "
b1 /
b1 d
b10000 2
b1100 &
b1100 3
b1100 F
b1100 H
b1110110001111011011000000000101 ,"
b11110 e
0@
1(
#380000
0(
#385000
b1000 5
b1000 G
1!
09
1*"
b100000000000000001 :
b10010 4
b10010 C
b110000000001010 M
b110000000001010 $"
b110000000001010 +"
b1001000000000100000000000000001 '
b1001000000000100000000000000001 ;
b1001000000000100000000000000001 E
0B
b11111 e
b11101100011110110110000000001010 ,"
b1000 2
b100 &
b100 3
b100 F
b100 H
1(
#390000
0(
#395000
b100 <
b1000100000000000000100 :
1*"
b1001000001000100000000000000100 '
b1001000001000100000000000000100 ;
b1001000001000100000000000000100 E
b1100 5
b1100 G
b1100000000010101 M
b1100000000010101 $"
b1100000000010101 +"
b1 "
b1 /
b1 d
b1100 2
b1000 &
b1000 3
b1000 F
b1000 H
b11011000111101101100000000010101 ,"
b100000 e
1B
1@
1(
#400000
0(
#405000
0*"
19
0!
b1 <
b1 :
b10 4
b10 C
b1 "
b1 /
b1 d
b1000000000101011 M
b1000000000101011 $"
b1000000000101011 +"
b1000000000000000000000000001 '
b1000000000000000000000000001 ;
b1000000000000000000000000001 E
b100 5
b100 G
0@
b100001 e
b10110001111011011000000000101011 ,"
b10000 2
b1100 &
b1100 3
b1100 F
b1100 H
1(
#410000
0(
#415000
b1000 5
b1000 G
1!
09
b100000000000000001 :
b10010 4
b10010 C
1*"
b1001000000000100000000000000001 '
b1001000000000100000000000000001 ;
b1001000000000100000000000000001 E
b1010110 M
b1010110 $"
b1010110 +"
b1000 2
b100 &
b100 3
b100 F
b100 H
b1100011110110110000000001010110 ,"
b100010 e
0B
1(
#420000
0(
#425000
1*"
b100 <
b1000100000000000000100 :
b1 "
b1 /
b1 d
b10101101 M
b10101101 $"
b10101101 +"
b1001000001000100000000000000100 '
b1001000001000100000000000000100 ;
b1001000001000100000000000000100 E
b1100 5
b1100 G
1B
1@
b100011 e
b11000111101101100000000010101101 ,"
b1100 2
b1000 &
b1000 3
b1000 F
b1000 H
1(
#430000
0(
#435000
19
0!
0*"
b1 <
b1 :
b10 4
b10 C
b1000000000000000000000000001 '
b1000000000000000000000000001 ;
b1000000000000000000000000001 E
b100 5
b100 G
b101011011 M
b101011011 $"
b101011011 +"
b1 "
b1 /
b1 d
b10000 2
b1100 &
b1100 3
b1100 F
b1100 H
b10001111011011000000000101011011 ,"
b100100 e
0@
1(
#440000
0(
#445000
b1000 5
b1000 G
1!
09
1*"
b100000000000000001 :
b10010 4
b10010 C
b1010110110 M
b1010110110 $"
b1010110110 +"
b1001000000000100000000000000001 '
b1001000000000100000000000000001 ;
b1001000000000100000000000000001 E
0B
b100101 e
b11110110110000000001010110110 ,"
b1000 2
b100 &
b100 3
b100 F
b100 H
1(
#450000
0(
#455000
b100 <
b1000100000000000000100 :
0*"
b1001000001000100000000000000100 '
b1001000001000100000000000000100 ;
b1001000001000100000000000000100 E
b1100 5
b1100 G
b10101101101 M
b10101101101 $"
b10101101101 +"
b1 "
b1 /
b1 d
b1100 2
b1000 &
b1000 3
b1000 F
b1000 H
b111101101100000000010101101101 ,"
b100110 e
1B
1@
1(
#460000
0(
#465000
19
0!
0*"
b1 <
b1 :
b10 4
b10 C
b1 "
b1 /
b1 d
b101011011010 M
b101011011010 $"
b101011011010 +"
b1000000000000000000000000001 '
b1000000000000000000000000001 ;
b1000000000000000000000000001 E
b100 5
b100 G
0@
b100111 e
b1111011011000000000101011011010 ,"
b10000 2
b1100 &
b1100 3
b1100 F
b1100 H
1(
#470000
0(
#475000
b1000 5
b1000 G
1!
09
1*"
b100000000000000001 :
b10010 4
b10010 C
b1001000000000100000000000000001 '
b1001000000000100000000000000001 ;
b1001000000000100000000000000001 E
b1010110110100 M
b1010110110100 $"
b1010110110100 +"
b1000 2
b100 &
b100 3
b100 F
b100 H
b11110110110000000001010110110100 ,"
b101000 e
0B
1(
#480000
0(
#485000
0*"
b100 <
b1000100000000000000100 :
b1 "
b1 /
b1 d
b10101101101001 M
b10101101101001 $"
b10101101101001 +"
b1001000001000100000000000000100 '
b1001000001000100000000000000100 ;
b1001000001000100000000000000100 E
b1100 5
b1100 G
1B
1@
b101001 e
b11101101100000000010101101101001 ,"
b1100 2
b1000 &
b1000 3
b1000 F
b1000 H
1(
#490000
0(
#495000
19
0!
b1 <
b1 :
b10 4
b10 C
0*"
b1000000000000000000000000001 '
b1000000000000000000000000001 ;
b1000000000000000000000000001 E
b100 5
b100 G
b101011011010010 M
b101011011010010 $"
b101011011010010 +"
b1 "
b1 /
b1 d
b10000 2
b1100 &
b1100 3
b1100 F
b1100 H
b11011011000000000101011011010010 ,"
b101010 e
0@
1(
#500000
0(
#505000
1*"
b1000 5
b1000 G
1!
09
b100000000000000001 :
b10010 4
b10010 C
b1010110110100100 M
b1010110110100100 $"
b1010110110100100 +"
b1001000000000100000000000000001 '
b1001000000000100000000000000001 ;
b1001000000000100000000000000001 E
0B
b101011 e
b10110110000000001010110110100100 ,"
b1000 2
b100 &
b100 3
b100 F
b100 H
1(
#510000
0(
#515000
b100 <
b1000100000000000000100 :
1*"
b1001000001000100000000000000100 '
b1001000001000100000000000000100 ;
b1001000001000100000000000000100 E
b1100 5
b1100 G
b101101101001001 M
b101101101001001 $"
b101101101001001 +"
b1 "
b1 /
b1 d
b1100 2
b1000 &
b1000 3
b1000 F
b1000 H
b1101100000000010101101101001001 ,"
b101100 e
1B
1@
1(
#520000
0(
#525000
1*"
19
0!
b1 <
b1 :
b10 4
b10 C
b1 "
b1 /
b1 d
b1011011010010011 M
b1011011010010011 $"
b1011011010010011 +"
b1000000000000000000000000001 '
b1000000000000000000000000001 ;
b1000000000000000000000000001 E
b100 5
b100 G
0@
b101101 e
b11011000000000101011011010010011 ,"
b10000 2
b1100 &
b1100 3
b1100 F
b1100 H
1(
#530000
0(
#535000
b1000 5
b1000 G
1!
09
b100000000000000001 :
b10010 4
b10010 C
b1001000000000100000000000000001 '
b1001000000000100000000000000001 ;
b1001000000000100000000000000001 E
b110110100100111 M
b110110100100111 $"
b110110100100111 +"
b1000 2
b100 &
b100 3
b100 F
b100 H
b10110000000001010110110100100111 ,"
b101110 e
0B
1(
#540000
0(
#545000
0*"
b100 <
b1000100000000000000100 :
b1 "
b1 /
b1 d
b1101101001001111 M
b1101101001001111 $"
b1101101001001111 +"
b1001000001000100000000000000100 '
b1001000001000100000000000000100 ;
b1001000001000100000000000000100 E
b1100 5
b1100 G
1B
1@
b101111 e
b1100000000010101101101001001111 ,"
b1100 2
b1000 &
b1000 3
b1000 F
b1000 H
1(
#550000
0(
#555000
19
0!
b1 <
b1 :
b10 4
b10 C
0*"
b1000000000000000000000000001 '
b1000000000000000000000000001 ;
b1000000000000000000000000001 E
b100 5
b100 G
b1011010010011110 M
b1011010010011110 $"
b1011010010011110 +"
b1 "
b1 /
b1 d
b10000 2
b1100 &
b1100 3
b1100 F
b1100 H
b11000000000101011011010010011110 ,"
b110000 e
0@
1(
#560000
0(
#565000
0*"
b1000 5
b1000 G
1!
09
b100000000000000001 :
b10010 4
b10010 C
b110100100111100 M
b110100100111100 $"
b110100100111100 +"
b1001000000000100000000000000001 '
b1001000000000100000000000000001 ;
b1001000000000100000000000000001 E
0B
b110001 e
b10000000001010110110100100111100 ,"
b1000 2
b100 &
b100 3
b100 F
b100 H
1(
#570000
0(
#575000
b100 <
b1000100000000000000100 :
b1001000001000100000000000000100 '
b1001000001000100000000000000100 ;
b1001000001000100000000000000100 E
b1100 5
b1100 G
b1101001001111000 M
b1101001001111000 $"
b1101001001111000 +"
b1 "
b1 /
b1 d
b1100 2
b1000 &
b1000 3
b1000 F
b1000 H
b10101101101001001111000 ,"
b110010 e
1B
1@
1(
#580000
0(
#585000
1*"
19
0!
b1 <
b1 :
b10 4
b10 C
b1 "
b1 /
b1 d
b1010010011110000 M
b1010010011110000 $"
b1010010011110000 +"
b1000000000000000000000000001 '
b1000000000000000000000000001 ;
b1000000000000000000000000001 E
b100 5
b100 G
0@
b110011 e
b101011011010010011110000 ,"
b10000 2
b1100 &
b1100 3
b1100 F
b1100 H
1(
#590000
0(
#595000
b1000 5
b1000 G
1!
09
b100000000000000001 :
b10010 4
b10010 C
1*"
b1001000000000100000000000000001 '
b1001000000000100000000000000001 ;
b1001000000000100000000000000001 E
b100100111100001 M
b100100111100001 $"
b100100111100001 +"
b1000 2
b100 &
b100 3
b100 F
b100 H
b1010110110100100111100001 ,"
b110100 e
0B
1(
#600000
0(
#605000
1*"
b100 <
b1000100000000000000100 :
b1 "
b1 /
b1 d
b1001001111000011 M
b1001001111000011 $"
b1001001111000011 +"
b1001000001000100000000000000100 '
b1001000001000100000000000000100 ;
b1001000001000100000000000000100 E
b1100 5
b1100 G
1B
1@
b110101 e
b10101101101001001111000011 ,"
b1100 2
b1000 &
b1000 3
b1000 F
b1000 H
1(
#610000
0(
